[gd_resource type="VisualShader" load_steps=5 format=2]

[sub_resource type="VisualShaderNodeInput" id=1]
input_name = "normal"

[sub_resource type="VisualShaderNodeInput" id=2]
input_name = "view"

[sub_resource type="VisualShaderNodeDotProduct" id=3]

[sub_resource type="VisualShaderNodeVectorInterp" id=4]

[resource]
code = "shader_type spatial;
render_mode specular_disabled, unshaded;




void vertex() {
// Output:0

}

void fragment() {
// Input:2
	vec3 n_out2p0;
	n_out2p0 = NORMAL;

// Input:4
	vec3 n_out4p0;
	n_out4p0 = VIEW;

// DotProduct:5
	float n_out5p0;
	n_out5p0 = dot( n_out2p0 , n_out4p0 );

// VectorInterp:6
	vec3 n_in6p1 = vec3(0.00000,0.00000,0.00000);
	vec3 n_out6p0;
	n_out6p0 = mix( n_out2p0 , n_in6p1 , vec3(n_out5p0) );

// Output:0
	ALBEDO = n_out6p0;

}

void light() {
// Output:0

}
"
graph_offset = Vector2( -149, 26 )
modes/specular = 4
flags/unshaded = true
nodes/fragment/0/position = Vector2( 600, 140 )
nodes/fragment/2/node = SubResource( 1 )
nodes/fragment/2/position = Vector2( -80, 100 )
nodes/fragment/4/node = SubResource( 2 )
nodes/fragment/4/position = Vector2( -140, 320 )
nodes/fragment/5/node = SubResource( 3 )
nodes/fragment/5/position = Vector2( 140, 300 )
nodes/fragment/6/node = SubResource( 4 )
nodes/fragment/6/position = Vector2( 380, 160 )
nodes/fragment/connections = PoolIntArray( 2, 0, 5, 0, 4, 0, 5, 1, 6, 0, 0, 0, 5, 0, 6, 2, 2, 0, 6, 0 )
nodes/light/0/position = Vector2( 540, 140 )
