[gd_resource type="Environment" load_steps=2 format=2]

[sub_resource type="ProceduralSky" id=1]
sky_top_color = Color( 0.0470588, 0.454902, 0.976471, 1 )
sky_horizon_color = Color( 0.556863, 0.823529, 0.909804, 1 )
sky_curve = 0.25
ground_bottom_color = Color( 0.101961, 0.145098, 0.188235, 1 )
ground_horizon_color = Color( 0.482353, 0.788235, 0.952941, 1 )
ground_curve = 0.01
sun_energy = 16.0

[resource]
background_mode = 1
background_sky = SubResource( 1 )
fog_color = Color( 0.52549, 0.619608, 0.72549, 1 )
fog_sun_color = Color( 1, 0.901961, 0.701961, 1 )
tonemap_mode = 1
tonemap_exposure = 1.2
auto_exposure_enabled = true
auto_exposure_scale = 0.1
auto_exposure_min_luma = 0.2
auto_exposure_max_luma = 4.0
auto_exposure_speed = 64.0
ssao_blur = 1
glow_enabled = true
glow_levels/1 = true
glow_levels/2 = true
glow_levels/4 = true
glow_levels/6 = true
glow_levels/7 = true
glow_intensity = 0.01
glow_strength = 1.2
glow_blend_mode = 0
glow_hdr_threshold = 1.8
glow_hdr_luminance_cap = 8.0
glow_bicubic_upscale = true
adjustment_enabled = true
adjustment_contrast = 0.9
adjustment_saturation = 1.4
