[gd_scene load_steps=6 format=2]

[ext_resource path="res://prog/player/Indicator.gd" type="Script" id=1]
[ext_resource path="res://prog/player/left-click_indicator.png" type="Texture" id=2]

[sub_resource type="Animation" id=1]
tracks/0/type = "value"
tracks/0/path = NodePath("MoveTo:modulate")
tracks/0/interp = 1
tracks/0/loop_wrap = true
tracks/0/imported = false
tracks/0/enabled = true
tracks/0/keys = {
"times": PoolRealArray( 0, 1 ),
"transitions": PoolRealArray( 1, 1 ),
"update": 0,
"values": [ Color( 1, 1, 1, 1 ), Color( 1, 1, 1, 0 ) ]
}
tracks/1/type = "value"
tracks/1/path = NodePath("MoveTo:scale")
tracks/1/interp = 1
tracks/1/loop_wrap = true
tracks/1/imported = false
tracks/1/enabled = true
tracks/1/keys = {
"times": PoolRealArray( 0, 1 ),
"transitions": PoolRealArray( 1, 1 ),
"update": 0,
"values": [ Vector3( 0, 0, 0 ), Vector3( 0.5, 0.5, 0 ) ]
}

[sub_resource type="Animation" id=2]
tracks/0/type = "value"
tracks/0/path = NodePath("MoveTo:scale")
tracks/0/interp = 1
tracks/0/loop_wrap = true
tracks/0/imported = false
tracks/0/enabled = true
tracks/0/keys = {
"times": PoolRealArray( 0, 0.992481 ),
"transitions": PoolRealArray( 1, 1 ),
"update": 0,
"values": [ Vector3( 0, 0, 0 ), Vector3( 0.5, 0.5, 0 ) ]
}
tracks/1/type = "value"
tracks/1/path = NodePath("MoveTo:modulate")
tracks/1/interp = 1
tracks/1/loop_wrap = true
tracks/1/imported = false
tracks/1/enabled = true
tracks/1/keys = {
"times": PoolRealArray( 0, 1 ),
"transitions": PoolRealArray( 1, 1 ),
"update": 0,
"values": [ Color( 1, 1, 1, 1 ), Color( 1, 1, 1, 0 ) ]
}

[sub_resource type="Animation" id=3]
tracks/0/type = "value"
tracks/0/path = NodePath("MoveTo:modulate")
tracks/0/interp = 1
tracks/0/loop_wrap = true
tracks/0/imported = false
tracks/0/enabled = true
tracks/0/keys = {
"times": PoolRealArray( 0, 1 ),
"transitions": PoolRealArray( 1, 1 ),
"update": 0,
"values": [ Color( 1, 0.478431, 0.337255, 1 ), Color( 1, 0, 0, 0 ) ]
}
tracks/1/type = "value"
tracks/1/path = NodePath("MoveTo:scale")
tracks/1/interp = 1
tracks/1/loop_wrap = true
tracks/1/imported = false
tracks/1/enabled = true
tracks/1/keys = {
"times": PoolRealArray( 0, 1 ),
"transitions": PoolRealArray( 1, 1 ),
"update": 0,
"values": [ Vector3( 0, 0, 0 ), Vector3( 0.5, 0.5, 0 ) ]
}

[node name="Indicator" type="Spatial"]
script = ExtResource( 1 )

[node name="MoveTo" type="Sprite3D" parent="."]
transform = Transform( 1, 0, 0, 0, -4.37114e-08, 1, 0, -1, -4.37114e-08, 0, 0.01, 0 )
texture = ExtResource( 2 )

[node name="AnimationPlayer" type="AnimationPlayer" parent="."]
anims/attack = SubResource( 1 )
anims/move_to = SubResource( 2 )
anims/no_can_do = SubResource( 3 )
[connection signal="animation_finished" from="AnimationPlayer" to="." method="_on_AnimationPlayer_animation_finished" flags=3]
[connection signal="animation_started" from="AnimationPlayer" to="." method="_on_AnimationPlayer_animation_started"]
