[gd_scene load_steps=6 format=2]

[ext_resource path="res://prog/Side.gd" type="Script" id=1]
[ext_resource path="res://prog/res/Side.material" type="Material" id=2]
[ext_resource path="res://prog/res/prog-side.material" type="Material" id=3]
[ext_resource path="res://tests/TestBallOrientationIndicators.tscn" type="PackedScene" id=4]

[sub_resource type="ArrayMesh" id=1]
surfaces/0 = {
"aabb": AABB( -0.371226, -0.265185, -0.262793, 0.10873, 0.53037, 0.525585 ),
"array_data": PoolByteArray( 112, 106, 186, 190, 162, 249, 211, 51, 66, 125, 148, 189, 132, 0, 231, 0, 25, 0, 132, 127, 17, 57, 0, 56, 97, 17, 190, 190, 195, 122, 229, 51, 53, 148, 75, 50, 129, 0, 0, 0, 0, 0, 129, 127, 255, 55, 0, 56, 112, 106, 186, 190, 0, 221, 105, 60, 214, 162, 145, 189, 132, 4, 232, 0, 25, 0, 132, 127, 12, 57, 53, 56, 141, 153, 175, 190, 49, 94, 229, 60, 106, 214, 14, 190, 139, 9, 208, 0, 48, 0, 139, 127, 13, 58, 104, 56, 141, 153, 175, 190, 223, 66, 187, 51, 200, 162, 17, 190, 139, 0, 207, 0, 49, 0, 139, 127, 24, 58, 0, 56, 33, 9, 158, 190, 170, 126, 38, 61, 41, 94, 79, 190, 151, 13, 187, 0, 69, 255, 151, 127, 251, 58, 151, 56, 33, 9, 158, 190, 150, 73, 156, 51, 47, 110, 83, 190, 151, 0, 185, 0, 71, 0, 151, 127, 10, 59, 0, 56, 33, 9, 158, 190, 150, 73, 156, 51, 47, 110, 83, 190, 158, 7, 176, 0, 80, 0, 158, 127, 10, 59, 0, 56, 245, 101, 134, 190, 74, 232, 83, 61, 238, 246, 131, 190, 158, 7, 176, 0, 80, 0, 158, 127, 203, 59, 193, 56, 245, 101, 134, 190, 252, 124, 112, 51, 200, 140, 134, 190, 158, 7, 176, 0, 80, 0, 158, 127, 222, 59, 0, 56, 33, 9, 158, 190, 170, 126, 38, 61, 41, 94, 79, 190, 158, 7, 176, 0, 80, 0, 158, 127, 251, 58, 151, 56, 112, 106, 186, 190, 55, 94, 229, 60, 174, 47, 137, 189, 132, 9, 233, 0, 23, 0, 132, 127, 252, 56, 104, 56, 141, 153, 175, 190, 187, 245, 96, 61, 207, 140, 6, 190, 139, 18, 211, 0, 45, 0, 138, 127, 239, 57, 205, 56, 33, 9, 158, 190, 151, 75, 163, 61, 15, 86, 67, 190, 151, 26, 191, 0, 66, 254, 148, 127, 207, 58, 41, 57, 33, 9, 158, 190, 151, 75, 163, 61, 15, 86, 67, 190, 158, 23, 179, 0, 78, 0, 157, 127, 207, 58, 41, 57, 245, 101, 134, 190, 74, 232, 83, 61, 238, 246, 131, 190, 158, 23, 179, 0, 78, 0, 157, 127, 203, 59, 193, 56, 33, 9, 158, 190, 170, 126, 38, 61, 41, 94, 79, 190, 158, 23, 179, 0, 78, 0, 157, 127, 251, 58, 151, 56, 244, 101, 134, 190, 218, 213, 207, 61, 168, 157, 120, 190, 158, 23, 179, 0, 78, 0, 157, 127, 147, 59, 123, 57, 112, 106, 186, 190, 188, 126, 38, 61, 190, 237, 118, 189, 132, 14, 235, 0, 21, 0, 131, 127, 227, 56, 151, 56, 141, 153, 175, 190, 157, 75, 163, 61, 1, 47, 242, 189, 139, 27, 216, 0, 41, 0, 137, 127, 189, 57, 41, 57, 33, 9, 158, 190, 92, 17, 237, 61, 73, 204, 47, 190, 151, 39, 197, 0, 61, 253, 145, 127, 135, 58, 176, 57, 33, 9, 158, 190, 92, 17, 237, 61, 73, 204, 47, 190, 158, 37, 185, 0, 74, 0, 154, 127, 135, 58, 176, 57, 244, 101, 134, 190, 218, 213, 207, 61, 168, 157, 120, 190, 158, 37, 185, 0, 74, 0, 154, 127, 147, 59, 123, 57, 33, 9, 158, 190, 151, 75, 163, 61, 15, 86, 67, 190, 158, 37, 185, 0, 74, 0, 154, 127, 207, 58, 41, 57, 244, 101, 134, 190, 111, 221, 22, 62, 146, 191, 95, 190, 158, 37, 185, 0, 74, 0, 154, 127, 55, 59, 38, 58, 112, 106, 186, 190, 110, 232, 83, 61, 222, 254, 81, 189, 132, 17, 238, 0, 18, 0, 131, 127, 193, 56, 193, 56, 141, 153, 175, 190, 226, 213, 207, 61, 209, 245, 205, 189, 139, 34, 222, 0, 36, 0, 135, 127, 123, 57, 123, 57, 33, 9, 158, 190, 114, 221, 22, 62, 2, 129, 21, 190, 151, 49, 206, 0, 53, 253, 141, 127, 38, 58, 38, 58, 33, 9, 158, 190, 114, 221, 22, 62, 2, 129, 21, 190, 158, 50, 194, 0, 68, 0, 149, 127, 38, 58, 38, 58, 244, 101, 134, 190, 111, 221, 22, 62, 146, 191, 95, 190, 158, 50, 194, 0, 68, 0, 149, 127, 55, 59, 38, 58, 33, 9, 158, 190, 92, 17, 237, 61, 73, 204, 47, 190, 158, 50, 194, 0, 68, 0, 149, 127, 135, 58, 176, 57, 244, 101, 134, 190, 191, 3, 64, 62, 71, 72, 62, 190, 158, 50, 194, 0, 68, 0, 149, 127, 188, 58, 188, 58, 112, 106, 186, 190, 86, 45, 121, 61, 29, 254, 36, 189, 132, 21, 242, 0, 14, 0, 130, 127, 151, 56, 227, 56, 141, 153, 175, 190, 123, 99, 244, 61, 109, 210, 161, 189, 139, 40, 229, 0, 28, 0, 133, 127, 41, 57, 189, 57, 33, 9, 158, 190, 1, 102, 49, 62, 207, 237, 234, 189, 151, 58, 217, 0, 42, 253, 137, 127, 176, 57, 135, 58, 33, 9, 158, 190, 1, 102, 49, 62, 207, 237, 234, 189, 158, 61, 205, 0, 58, 0, 144, 127, 176, 57, 135, 58, 244, 101, 134, 190, 191, 3, 64, 62, 71, 72, 62, 190, 158, 61, 205, 0, 58, 0, 144, 127, 188, 58, 188, 58, 33, 9, 158, 190, 114, 221, 22, 62, 2, 129, 21, 190, 158, 61, 205, 0, 58, 0, 144, 127, 38, 58, 38, 58, 242, 101, 134, 190, 9, 201, 97, 62, 2, 129, 21, 190, 158, 61, 205, 0, 58, 0, 144, 127, 38, 58, 55, 59, 112, 106, 186, 190, 113, 111, 138, 61, 79, 76, 227, 188, 132, 23, 247, 0, 9, 0, 130, 127, 104, 56, 252, 56, 140, 153, 175, 190, 103, 198, 7, 62, 23, 238, 94, 189, 139, 45, 238, 0, 20, 0, 131, 127, 205, 56, 239, 57, 33, 9, 158, 190, 84, 29, 69, 62, 109, 210, 161, 189, 151, 65, 229, 0, 30, 254, 133, 127, 41, 57, 207, 58, 33, 9, 158, 190, 84, 29, 69, 62, 109, 210, 161, 189, 158, 70, 218, 0, 45, 0, 138, 127, 41, 57, 207, 58, 242, 101, 134, 190, 9, 201, 97, 62, 2, 129, 21, 190, 158, 70, 218, 0, 45, 0, 138, 127, 38, 58, 55, 59, 33, 9, 158, 190, 1, 102, 49, 62, 207, 237, 234, 189, 158, 70, 218, 0, 45, 0, 138, 127, 176, 57, 135, 58, 242, 101, 134, 190, 17, 225, 122, 62, 209, 245, 205, 189, 158, 70, 218, 0, 45, 0, 138, 127, 123, 57, 147, 59, 140, 153, 175, 190, 82, 35, 16, 62, 58, 76, 227, 188, 139, 47, 247, 0, 10, 0, 130, 127, 104, 56, 14, 58, 31, 9, 158, 190, 121, 65, 81, 62, 19, 254, 36, 189, 151, 69, 243, 0, 15, 255, 130, 127, 151, 56, 251, 58, 31, 9, 158, 190, 121, 65, 81, 62, 19, 254, 36, 189, 158, 76, 233, 0, 29, 0, 133, 127, 151, 56, 251, 58, 242, 101, 134, 190, 17, 225, 122, 62, 209, 245, 205, 189, 158, 76, 233, 0, 29, 0, 133, 127, 123, 57, 147, 59, 33, 9, 158, 190, 84, 29, 69, 62, 109, 210, 161, 189, 158, 76, 233, 0, 29, 0, 133, 127, 41, 57, 207, 58, 243, 101, 134, 190, 125, 42, 133, 62, 214, 254, 81, 189, 158, 76, 233, 0, 29, 0, 133, 127, 193, 56, 203, 59, 112, 106, 186, 190, 76, 246, 146, 61, 106, 192, 103, 188, 132, 24, 252, 0, 5, 0, 130, 127, 53, 56, 12, 57, 140, 153, 175, 190, 55, 246, 18, 62, 244, 145, 186, 179, 139, 48, 0, 0, 0, 0, 129, 127, 255, 55, 24, 58, 31, 9, 158, 190, 243, 90, 85, 62, 146, 88, 192, 179, 151, 70, 0, 0, 0, 0, 129, 127, 255, 55, 10, 59, 31, 9, 158, 190, 243, 90, 85, 62, 146, 88, 192, 179, 158, 79, 249, 0, 10, 0, 130, 127, 255, 55, 10, 59, 243, 101, 134, 190, 125, 42, 133, 62, 214, 254, 81, 189, 158, 79, 249, 0, 10, 0, 130, 127, 193, 56, 203, 59, 31, 9, 158, 190, 121, 65, 81, 62, 19, 254, 36, 189, 158, 79, 249, 0, 10, 0, 130, 127, 151, 56, 251, 58, 243, 101, 134, 190, 90, 198, 135, 62, 226, 98, 194, 179, 158, 79, 249, 0, 10, 0, 130, 127, 255, 55, 222, 59, 112, 106, 186, 190, 91, 215, 149, 61, 223, 71, 177, 179, 132, 25, 0, 0, 0, 0, 129, 127, 255, 55, 17, 57, 112, 106, 186, 190, 76, 246, 146, 61, 185, 191, 103, 60, 132, 24, 4, 0, 251, 0, 130, 127, 149, 55, 12, 57, 140, 153, 175, 190, 81, 35, 16, 62, 222, 75, 227, 60, 139, 47, 9, 0, 246, 0, 130, 127, 46, 55, 14, 58, 31, 9, 158, 190, 122, 65, 81, 62, 216, 253, 36, 61, 151, 69, 13, 0, 241, 1, 130, 127, 208, 54, 251, 58, 243, 101, 134, 190, 123, 42, 133, 62, 152, 254, 81, 61, 158, 79, 7, 0, 246, 0, 130, 127, 125, 54, 203, 59, 31, 9, 158, 190, 243, 90, 85, 62, 146, 88, 192, 179, 158, 79, 7, 0, 246, 0, 130, 127, 255, 55, 10, 59, 31, 9, 158, 190, 122, 65, 81, 62, 216, 253, 36, 61, 158, 79, 7, 0, 246, 0, 130, 127, 208, 54, 251, 58, 243, 101, 134, 190, 90, 198, 135, 62, 226, 98, 194, 179, 158, 79, 7, 0, 246, 0, 130, 127, 255, 55, 222, 59, 242, 101, 134, 190, 15, 225, 122, 62, 181, 245, 205, 61, 158, 76, 23, 0, 227, 0, 133, 127, 9, 53, 147, 59, 31, 9, 158, 190, 122, 65, 81, 62, 216, 253, 36, 61, 158, 76, 23, 0, 227, 0, 133, 127, 208, 54, 251, 58, 33, 9, 158, 190, 85, 29, 69, 62, 80, 210, 161, 61, 158, 76, 23, 0, 227, 0, 133, 127, 172, 53, 207, 58, 243, 101, 134, 190, 123, 42, 133, 62, 152, 254, 81, 61, 158, 76, 23, 0, 227, 0, 133, 127, 125, 54, 203, 59, 112, 106, 186, 190, 114, 111, 138, 61, 224, 75, 227, 60, 132, 23, 9, 0, 247, 0, 130, 127, 46, 55, 252, 56, 140, 153, 175, 190, 102, 198, 7, 62, 222, 237, 94, 61, 139, 45, 18, 0, 236, 0, 131, 127, 101, 54, 239, 57, 33, 9, 158, 190, 85, 29, 69, 62, 80, 210, 161, 61, 151, 65, 27, 0, 226, 2, 133, 127, 172, 53, 207, 58, 112, 106, 186, 190, 76, 45, 121, 61, 229, 253, 36, 61, 132, 21, 14, 0, 242, 0, 130, 127, 208, 54, 227, 56, 141, 153, 175, 190, 122, 99, 244, 61, 80, 210, 161, 61, 139, 40, 27, 0, 228, 0, 133, 127, 172, 53, 189, 57, 34, 9, 158, 190, 2, 102, 49, 62, 175, 237, 234, 61, 151, 58, 39, 0, 214, 3, 137, 127, 158, 52, 135, 58, 243, 101, 134, 190, 11, 201, 97, 62, 238, 128, 21, 62, 158, 70, 38, 0, 211, 0, 138, 127, 101, 51, 55, 59, 33, 9, 158, 190, 85, 29, 69, 62, 80, 210, 161, 61, 158, 70, 38, 0, 211, 0, 138, 127, 172, 53, 207, 58, 34, 9, 158, 190, 2, 102, 49, 62, 175, 237, 234, 61, 158, 70, 38, 0, 211, 0, 138, 127, 158, 52, 135, 58, 242, 101, 134, 190, 15, 225, 122, 62, 181, 245, 205, 61, 158, 70, 38, 0, 211, 0, 138, 127, 9, 53, 147, 59, 246, 101, 134, 190, 190, 3, 64, 62, 54, 72, 62, 62, 158, 61, 51, 0, 198, 0, 144, 127, 13, 49, 188, 58, 34, 9, 158, 190, 2, 102, 49, 62, 175, 237, 234, 61, 158, 61, 51, 0, 198, 0, 144, 127, 158, 52, 135, 58, 34, 9, 158, 190, 114, 221, 22, 62, 241, 128, 21, 62, 158, 61, 51, 0, 198, 0, 144, 127, 101, 51, 38, 58, 243, 101, 134, 190, 11, 201, 97, 62, 238, 128, 21, 62, 158, 61, 51, 0, 198, 0, 144, 127, 101, 51, 55, 59, 112, 106, 186, 190, 100, 232, 83, 61, 180, 254, 81, 61, 132, 17, 18, 0, 238, 0, 131, 127, 125, 54, 193, 56, 141, 153, 175, 190, 224, 213, 207, 61, 181, 245, 205, 61, 139, 34, 34, 0, 220, 0, 135, 127, 9, 53, 123, 57, 34, 9, 158, 190, 114, 221, 22, 62, 241, 128, 21, 62, 151, 49, 50, 0, 203, 3, 141, 127, 101, 51, 38, 58, 112, 106, 186, 190, 179, 126, 38, 61, 136, 237, 118, 61, 132, 14, 21, 0, 235, 0, 131, 127, 57, 54, 151, 56, 141, 153, 175, 190, 155, 75, 163, 61, 229, 46, 242, 61, 139, 27, 40, 0, 215, 0, 137, 127, 132, 52, 41, 57, 34, 9, 158, 190, 93, 17, 237, 61, 56, 204, 47, 62, 151, 39, 59, 0, 195, 3, 145, 127, 226, 49, 176, 57, 246, 101, 134, 190, 110, 221, 22, 62, 130, 191, 95, 62, 158, 50, 62, 0, 188, 0, 149, 127, 64, 46, 38, 58, 34, 9, 158, 190, 114, 221, 22, 62, 241, 128, 21, 62, 158, 50, 62, 0, 188, 0, 149, 127, 101, 51, 38, 58, 34, 9, 158, 190, 93, 17, 237, 61, 56, 204, 47, 62, 158, 50, 62, 0, 188, 0, 149, 127, 226, 49, 176, 57, 246, 101, 134, 190, 190, 3, 64, 62, 54, 72, 62, 62, 158, 50, 62, 0, 188, 0, 149, 127, 13, 49, 188, 58, 112, 106, 186, 190, 61, 94, 229, 60, 142, 47, 137, 61, 132, 9, 23, 0, 233, 0, 132, 127, 6, 54, 104, 56, 141, 153, 175, 190, 182, 245, 96, 61, 188, 140, 6, 62, 139, 18, 45, 0, 211, 0, 138, 127, 33, 52, 205, 56, 34, 9, 158, 190, 155, 75, 163, 61, 3, 86, 67, 62, 151, 26, 65, 0, 190, 2, 148, 127, 194, 48, 41, 57, 246, 101, 134, 190, 214, 213, 207, 61, 147, 157, 120, 62, 158, 37, 71, 0, 182, 0, 154, 127, 200, 42, 123, 57, 34, 9, 158, 190, 93, 17, 237, 61, 56, 204, 47, 62, 158, 37, 71, 0, 182, 0, 154, 127, 226, 49, 176, 57, 34, 9, 158, 190, 155, 75, 163, 61, 3, 86, 67, 62, 158, 37, 71, 0, 182, 0, 154, 127, 194, 48, 41, 57, 246, 101, 134, 190, 110, 221, 22, 62, 130, 191, 95, 62, 158, 37, 71, 0, 182, 0, 154, 127, 64, 46, 38, 58, 141, 153, 175, 190, 63, 94, 229, 60, 87, 214, 14, 62, 139, 9, 48, 0, 208, 0, 139, 127, 199, 51, 104, 56, 112, 106, 186, 190, 13, 221, 105, 60, 182, 162, 145, 61, 132, 4, 24, 0, 231, 0, 132, 127, 231, 53, 53, 56, 35, 9, 158, 190, 179, 126, 38, 61, 26, 94, 79, 62, 151, 13, 69, 0, 187, 1, 151, 127, 17, 48, 151, 56, 246, 101, 134, 190, 75, 232, 83, 61, 229, 246, 131, 62, 158, 23, 77, 0, 178, 0, 157, 127, 132, 38, 193, 56, 34, 9, 158, 190, 155, 75, 163, 61, 3, 86, 67, 62, 158, 23, 77, 0, 178, 0, 157, 127, 194, 48, 41, 57, 35, 9, 158, 190, 179, 126, 38, 61, 26, 94, 79, 62, 158, 23, 77, 0, 178, 0, 157, 127, 17, 48, 151, 56, 246, 101, 134, 190, 214, 213, 207, 61, 147, 157, 120, 62, 158, 23, 77, 0, 178, 0, 157, 127, 200, 42, 123, 57, 112, 106, 186, 190, 0, 26, 239, 51, 34, 125, 148, 61, 132, 0, 25, 0, 231, 0, 132, 127, 221, 53, 0, 56, 141, 153, 175, 190, 183, 120, 240, 51, 184, 162, 17, 62, 139, 0, 49, 0, 207, 0, 139, 127, 158, 51, 0, 56, 35, 9, 158, 190, 114, 137, 233, 51, 32, 110, 83, 62, 151, 0, 71, 0, 185, 0, 151, 127, 171, 47, 0, 56, 246, 101, 134, 190, 75, 232, 83, 61, 229, 246, 131, 62, 158, 7, 80, 0, 176, 0, 158, 127, 132, 38, 193, 56, 35, 9, 158, 190, 114, 137, 233, 51, 32, 110, 83, 62, 158, 7, 80, 0, 176, 0, 158, 127, 171, 47, 0, 56, 246, 101, 134, 190, 97, 144, 218, 51, 190, 140, 134, 62, 158, 7, 80, 0, 176, 0, 158, 127, 35, 36, 0, 56, 35, 9, 158, 190, 179, 126, 38, 61, 26, 94, 79, 62, 158, 7, 80, 0, 176, 0, 158, 127, 17, 48, 151, 56, 112, 106, 186, 190, 31, 220, 105, 188, 182, 162, 145, 61, 132, 252, 24, 0, 231, 0, 132, 127, 231, 53, 149, 55, 141, 153, 175, 190, 198, 93, 229, 188, 87, 214, 14, 62, 139, 247, 48, 0, 208, 0, 139, 127, 199, 51, 46, 55, 35, 9, 158, 190, 121, 126, 38, 189, 26, 94, 79, 62, 151, 243, 69, 0, 187, 255, 151, 127, 17, 48, 208, 54, 246, 101, 134, 190, 97, 144, 218, 51, 190, 140, 134, 62, 158, 249, 80, 0, 176, 0, 158, 127, 35, 36, 0, 56, 35, 9, 158, 190, 121, 126, 38, 189, 26, 94, 79, 62, 158, 249, 80, 0, 176, 0, 158, 127, 17, 48, 208, 54, 246, 101, 134, 190, 20, 232, 83, 189, 229, 246, 131, 62, 158, 249, 80, 0, 176, 0, 158, 127, 132, 38, 125, 54, 35, 9, 158, 190, 114, 137, 233, 51, 32, 110, 83, 62, 158, 249, 80, 0, 176, 0, 158, 127, 171, 47, 0, 56, 112, 106, 186, 190, 200, 93, 229, 188, 142, 47, 137, 61, 132, 247, 23, 0, 233, 0, 132, 127, 6, 54, 46, 55, 141, 153, 175, 190, 122, 245, 96, 189, 188, 140, 6, 62, 139, 238, 45, 0, 211, 0, 138, 127, 33, 52, 101, 54, 35, 9, 158, 190, 126, 75, 163, 189, 3, 86, 67, 62, 151, 230, 65, 0, 190, 254, 148, 127, 194, 48, 172, 53, 246, 101, 134, 190, 20, 232, 83, 189, 229, 246, 131, 62, 158, 233, 77, 0, 178, 0, 157, 127, 132, 38, 125, 54, 35, 9, 158, 190, 126, 75, 163, 189, 3, 86, 67, 62, 158, 233, 77, 0, 178, 0, 157, 127, 194, 48, 172, 53, 247, 101, 134, 190, 186, 213, 207, 189, 147, 157, 120, 62, 158, 233, 77, 0, 178, 0, 157, 127, 200, 42, 9, 53, 35, 9, 158, 190, 121, 126, 38, 189, 26, 94, 79, 62, 158, 233, 77, 0, 178, 0, 157, 127, 17, 48, 208, 54, 141, 153, 175, 190, 127, 75, 163, 189, 232, 46, 242, 61, 139, 229, 40, 0, 215, 0, 137, 127, 132, 52, 172, 53, 35, 9, 158, 190, 65, 17, 237, 189, 59, 204, 47, 62, 151, 217, 59, 0, 195, 253, 145, 127, 226, 49, 159, 52, 247, 101, 134, 190, 186, 213, 207, 189, 147, 157, 120, 62, 158, 219, 71, 0, 182, 0, 154, 127, 200, 42, 9, 53, 35, 9, 158, 190, 65, 17, 237, 189, 59, 204, 47, 62, 158, 219, 71, 0, 182, 0, 154, 127, 226, 49, 159, 52, 247, 101, 134, 190, 98, 221, 22, 190, 132, 191, 95, 62, 158, 219, 71, 0, 182, 0, 154, 127, 64, 46, 102, 51, 35, 9, 158, 190, 126, 75, 163, 189, 3, 86, 67, 62, 158, 219, 71, 0, 182, 0, 154, 127, 194, 48, 172, 53, 112, 106, 186, 190, 121, 126, 38, 189, 138, 237, 118, 61, 132, 242, 21, 0, 235, 0, 131, 127, 57, 54, 208, 54, 112, 106, 186, 190, 43, 232, 83, 189, 182, 254, 81, 61, 132, 239, 18, 0, 238, 0, 131, 127, 125, 54, 125, 54, 141, 153, 175, 190, 196, 213, 207, 189, 184, 245, 205, 61, 139, 222, 34, 0, 220, 0, 135, 127, 9, 53, 9, 53, 35, 9, 158, 190, 98, 221, 22, 190, 242, 128, 21, 62, 151, 207, 50, 0, 203, 253, 141, 127, 101, 51, 102, 51, 247, 101, 134, 190, 98, 221, 22, 190, 132, 191, 95, 62, 158, 206, 62, 0, 188, 0, 149, 127, 64, 46, 102, 51, 35, 9, 158, 190, 98, 221, 22, 190, 242, 128, 21, 62, 158, 206, 62, 0, 188, 0, 149, 127, 101, 51, 102, 51, 247, 101, 134, 190, 179, 3, 64, 190, 56, 72, 62, 62, 158, 206, 62, 0, 188, 0, 149, 127, 13, 49, 13, 49, 35, 9, 158, 190, 65, 17, 237, 189, 59, 204, 47, 62, 158, 206, 62, 0, 188, 0, 149, 127, 226, 49, 159, 52, 141, 153, 175, 190, 94, 99, 244, 189, 83, 210, 161, 61, 139, 216, 27, 0, 228, 0, 133, 127, 172, 53, 132, 52, 35, 9, 158, 190, 242, 101, 49, 190, 181, 237, 234, 61, 151, 198, 39, 0, 214, 253, 137, 127, 158, 52, 227, 49, 247, 101, 134, 190, 179, 3, 64, 190, 56, 72, 62, 62, 158, 195, 51, 0, 198, 0, 144, 127, 13, 49, 13, 49, 35, 9, 158, 190, 242, 101, 49, 190, 181, 237, 234, 61, 158, 195, 51, 0, 198, 0, 144, 127, 158, 52, 227, 49, 250, 101, 134, 190, 255, 200, 97, 190, 241, 128, 21, 62, 158, 195, 51, 0, 198, 0, 144, 127, 101, 51, 65, 46, 35, 9, 158, 190, 98, 221, 22, 190, 242, 128, 21, 62, 158, 195, 51, 0, 198, 0, 144, 127, 101, 51, 102, 51, 112, 106, 186, 190, 19, 45, 121, 189, 232, 253, 36, 61, 132, 235, 14, 0, 242, 0, 130, 127, 208, 54, 57, 54, 112, 106, 186, 190, 83, 111, 138, 189, 230, 75, 227, 60, 132, 233, 9, 0, 247, 0, 130, 127, 46, 55, 7, 54, 143, 153, 175, 190, 86, 198, 7, 190, 227, 237, 94, 61, 139, 211, 18, 0, 236, 0, 131, 127, 101, 54, 33, 52, 35, 9, 158, 190, 69, 29, 69, 190, 84, 210, 161, 61, 151, 191, 27, 0, 226, 254, 133, 127, 172, 53, 195, 48, 250, 101, 134, 190, 255, 200, 97, 190, 241, 128, 21, 62, 158, 186, 38, 0, 211, 0, 138, 127, 101, 51, 65, 46, 35, 9, 158, 190, 69, 29, 69, 190, 84, 210, 161, 61, 158, 186, 38, 0, 211, 0, 138, 127, 172, 53, 195, 48, 249, 101, 134, 190, 5, 225, 122, 190, 186, 245, 205, 61, 158, 186, 38, 0, 211, 0, 138, 127, 9, 53, 202, 42, 35, 9, 158, 190, 242, 101, 49, 190, 181, 237, 234, 61, 158, 186, 38, 0, 211, 0, 138, 127, 158, 52, 227, 49, 249, 101, 134, 190, 5, 225, 122, 190, 186, 245, 205, 61, 158, 180, 23, 0, 227, 0, 133, 127, 9, 53, 202, 42, 37, 9, 158, 190, 106, 65, 81, 190, 225, 253, 36, 61, 158, 180, 23, 0, 227, 0, 133, 127, 208, 54, 18, 48, 248, 101, 134, 190, 117, 42, 133, 190, 165, 254, 81, 61, 158, 180, 23, 0, 227, 0, 133, 127, 125, 54, 136, 38, 35, 9, 158, 190, 69, 29, 69, 190, 84, 210, 161, 61, 158, 180, 23, 0, 227, 0, 133, 127, 172, 53, 195, 48, 112, 106, 186, 190, 46, 246, 146, 189, 198, 191, 103, 60, 132, 232, 4, 0, 251, 0, 130, 127, 149, 55, 231, 53, 143, 153, 175, 190, 66, 35, 16, 190, 235, 75, 227, 60, 139, 209, 9, 0, 246, 0, 130, 127, 46, 55, 200, 51, 37, 9, 158, 190, 106, 65, 81, 190, 225, 253, 36, 61, 151, 187, 13, 0, 241, 255, 130, 127, 208, 54, 18, 48, 112, 106, 186, 190, 62, 215, 149, 189, 224, 181, 149, 179, 132, 231, 0, 0, 0, 0, 129, 127, 255, 55, 221, 53, 143, 153, 175, 190, 40, 246, 18, 190, 54, 125, 132, 179, 139, 208, 0, 0, 0, 0, 129, 127, 255, 55, 159, 51, 37, 9, 158, 190, 230, 90, 85, 190, 63, 170, 99, 179, 151, 186, 0, 0, 0, 0, 130, 127, 255, 55, 172, 47, 248, 101, 134, 190, 117, 42, 133, 190, 165, 254, 81, 61, 158, 177, 7, 0, 246, 0, 130, 127, 125, 54, 136, 38, 37, 9, 158, 190, 230, 90, 85, 190, 63, 170, 99, 179, 158, 177, 7, 0, 246, 0, 130, 127, 255, 55, 172, 47, 248, 101, 134, 190, 84, 198, 135, 190, 76, 234, 60, 179, 158, 177, 7, 0, 246, 0, 130, 127, 255, 55, 39, 36, 37, 9, 158, 190, 106, 65, 81, 190, 225, 253, 36, 61, 158, 177, 7, 0, 246, 0, 130, 127, 208, 54, 18, 48, 112, 106, 186, 190, 46, 246, 146, 189, 93, 192, 103, 188, 132, 232, 252, 0, 5, 0, 130, 127, 53, 56, 231, 53, 143, 153, 175, 190, 67, 35, 16, 190, 44, 76, 227, 188, 139, 209, 247, 0, 10, 0, 130, 127, 104, 56, 200, 51, 37, 9, 158, 190, 107, 65, 81, 190, 10, 254, 36, 189, 151, 187, 243, 0, 15, 1, 130, 127, 151, 56, 18, 48, 37, 9, 158, 190, 230, 90, 85, 190, 63, 170, 99, 179, 158, 177, 249, 0, 10, 0, 130, 127, 255, 55, 172, 47, 248, 101, 134, 190, 118, 42, 133, 190, 201, 254, 81, 189, 158, 177, 249, 0, 10, 0, 130, 127, 193, 56, 136, 38, 248, 101, 134, 190, 84, 198, 135, 190, 76, 234, 60, 179, 158, 177, 249, 0, 10, 0, 130, 127, 255, 55, 39, 36, 37, 9, 158, 190, 107, 65, 81, 190, 10, 254, 36, 189, 158, 177, 249, 0, 10, 0, 130, 127, 151, 56, 18, 48, 112, 106, 186, 190, 84, 111, 138, 189, 74, 76, 227, 188, 132, 233, 247, 0, 9, 0, 130, 127, 104, 56, 7, 54, 143, 153, 175, 190, 88, 198, 7, 190, 18, 238, 94, 189, 139, 211, 238, 0, 20, 0, 131, 127, 205, 56, 33, 52, 35, 9, 158, 190, 70, 29, 69, 190, 105, 210, 161, 189, 151, 191, 229, 0, 30, 2, 133, 127, 41, 57, 195, 48, 37, 9, 158, 190, 107, 65, 81, 190, 10, 254, 36, 189, 158, 180, 233, 0, 29, 0, 133, 127, 151, 56, 18, 48, 249, 101, 134, 190, 8, 225, 122, 190, 204, 245, 205, 189, 158, 180, 233, 0, 29, 0, 133, 127, 123, 57, 202, 42, 248, 101, 134, 190, 118, 42, 133, 190, 201, 254, 81, 189, 158, 180, 233, 0, 29, 0, 133, 127, 193, 56, 136, 38, 35, 9, 158, 190, 70, 29, 69, 190, 105, 210, 161, 189, 158, 180, 233, 0, 29, 0, 133, 127, 41, 57, 195, 48, 112, 106, 186, 190, 34, 45, 121, 189, 27, 254, 36, 189, 132, 235, 242, 0, 14, 0, 130, 127, 151, 56, 57, 54, 141, 153, 175, 190, 98, 99, 244, 189, 106, 210, 161, 189, 139, 216, 229, 0, 28, 0, 133, 127, 41, 57, 132, 52, 34, 9, 158, 190, 243, 101, 49, 190, 202, 237, 234, 189, 151, 198, 217, 0, 42, 3, 137, 127, 176, 57, 227, 49, 35, 9, 158, 190, 70, 29, 69, 190, 105, 210, 161, 189, 158, 186, 218, 0, 45, 0, 138, 127, 41, 57, 195, 48, 248, 101, 134, 190, 2, 201, 97, 190, 0, 129, 21, 190, 158, 186, 218, 0, 45, 0, 138, 127, 38, 58, 65, 46, 249, 101, 134, 190, 8, 225, 122, 190, 204, 245, 205, 189, 158, 186, 218, 0, 45, 0, 138, 127, 123, 57, 202, 42, 34, 9, 158, 190, 243, 101, 49, 190, 202, 237, 234, 189, 158, 186, 218, 0, 45, 0, 138, 127, 176, 57, 227, 49, 141, 153, 175, 190, 204, 213, 207, 189, 206, 245, 205, 189, 139, 222, 222, 0, 36, 0, 135, 127, 123, 57, 9, 53, 112, 106, 186, 190, 58, 232, 83, 189, 220, 254, 81, 189, 132, 239, 238, 0, 18, 0, 131, 127, 193, 56, 125, 54, 34, 9, 158, 190, 102, 221, 22, 190, 1, 129, 21, 190, 151, 207, 206, 0, 53, 3, 141, 127, 38, 58, 102, 51, 34, 9, 158, 190, 243, 101, 49, 190, 202, 237, 234, 189, 158, 195, 205, 0, 58, 0, 144, 127, 176, 57, 227, 49, 246, 101, 134, 190, 186, 3, 64, 190, 68, 72, 62, 190, 158, 195, 205, 0, 58, 0, 144, 127, 188, 58, 13, 49, 248, 101, 134, 190, 2, 201, 97, 190, 0, 129, 21, 190, 158, 195, 205, 0, 58, 0, 144, 127, 38, 58, 65, 46, 34, 9, 158, 190, 102, 221, 22, 190, 1, 129, 21, 190, 158, 195, 205, 0, 58, 0, 144, 127, 38, 58, 102, 51, 112, 106, 186, 190, 137, 126, 38, 189, 188, 237, 118, 189, 132, 242, 235, 0, 21, 0, 131, 127, 227, 56, 208, 54, 141, 153, 175, 190, 136, 75, 163, 189, 254, 46, 242, 189, 139, 229, 216, 0, 41, 0, 137, 127, 189, 57, 172, 53, 34, 9, 158, 190, 72, 17, 237, 189, 71, 204, 47, 190, 151, 217, 197, 0, 61, 3, 145, 127, 135, 58, 159, 52, 34, 9, 158, 190, 102, 221, 22, 190, 1, 129, 21, 190, 158, 206, 194, 0, 68, 0, 149, 127, 38, 58, 102, 51, 246, 101, 134, 190, 104, 221, 22, 190, 143, 191, 95, 190, 158, 206, 194, 0, 68, 0, 149, 127, 55, 59, 102, 51, 246, 101, 134, 190, 186, 3, 64, 190, 68, 72, 62, 190, 158, 206, 194, 0, 68, 0, 149, 127, 188, 58, 13, 49, 34, 9, 158, 190, 72, 17, 237, 189, 71, 204, 47, 190, 158, 206, 194, 0, 68, 0, 149, 127, 135, 58, 159, 52, 141, 153, 175, 190, 140, 245, 96, 189, 207, 140, 6, 190, 139, 238, 211, 0, 45, 0, 138, 127, 239, 57, 101, 54, 112, 106, 186, 190, 205, 93, 229, 188, 174, 47, 137, 189, 132, 247, 233, 0, 23, 0, 132, 127, 252, 56, 46, 55, 34, 9, 158, 190, 131, 75, 163, 189, 15, 86, 67, 190, 151, 230, 191, 0, 66, 2, 148, 127, 207, 58, 172, 53, 34, 9, 158, 190, 72, 17, 237, 189, 71, 204, 47, 190, 158, 219, 185, 0, 74, 0, 154, 127, 135, 58, 159, 52, 246, 101, 134, 190, 201, 213, 207, 189, 168, 157, 120, 190, 158, 219, 185, 0, 74, 0, 154, 127, 147, 59, 9, 53, 246, 101, 134, 190, 104, 221, 22, 190, 143, 191, 95, 190, 158, 219, 185, 0, 74, 0, 154, 127, 55, 59, 102, 51, 34, 9, 158, 190, 131, 75, 163, 189, 15, 86, 67, 190, 158, 219, 185, 0, 74, 0, 154, 127, 207, 58, 172, 53, 112, 106, 186, 190, 44, 220, 105, 188, 214, 162, 145, 189, 132, 252, 232, 0, 25, 0, 132, 127, 12, 57, 149, 55, 141, 153, 175, 190, 211, 93, 229, 188, 106, 214, 14, 190, 139, 247, 208, 0, 48, 0, 139, 127, 13, 58, 46, 55, 33, 9, 158, 190, 131, 126, 38, 189, 41, 94, 79, 190, 151, 243, 187, 0, 69, 1, 151, 127, 251, 58, 208, 54, 34, 9, 158, 190, 131, 75, 163, 189, 15, 86, 67, 190, 158, 233, 179, 0, 78, 0, 157, 127, 207, 58, 172, 53, 245, 101, 134, 190, 46, 232, 83, 189, 238, 246, 131, 190, 158, 233, 179, 0, 78, 0, 157, 127, 203, 59, 125, 54, 246, 101, 134, 190, 201, 213, 207, 189, 168, 157, 120, 190, 158, 233, 179, 0, 78, 0, 157, 127, 147, 59, 9, 53, 33, 9, 158, 190, 131, 126, 38, 189, 41, 94, 79, 190, 158, 233, 179, 0, 78, 0, 157, 127, 251, 58, 208, 54, 33, 9, 158, 190, 131, 126, 38, 189, 41, 94, 79, 190, 158, 249, 176, 0, 80, 0, 158, 127, 251, 58, 208, 54, 245, 101, 134, 190, 252, 124, 112, 51, 200, 140, 134, 190, 158, 249, 176, 0, 80, 0, 158, 127, 222, 59, 0, 56, 245, 101, 134, 190, 46, 232, 83, 189, 238, 246, 131, 190, 158, 249, 176, 0, 80, 0, 158, 127, 203, 59, 125, 54, 33, 9, 158, 190, 150, 73, 156, 51, 47, 110, 83, 190, 158, 249, 176, 0, 80, 0, 158, 127, 10, 59, 0, 56, 32, 234, 136, 190, 141, 15, 119, 190, 154, 7, 67, 189, 127, 0, 0, 0, 127, 0, 0, 129, 0, 0, 0, 60, 32, 234, 136, 190, 137, 15, 119, 190, 117, 7, 67, 61, 127, 0, 0, 0, 127, 0, 0, 129, 0, 0, 0, 60, 32, 234, 136, 190, 22, 232, 123, 190, 44, 21, 136, 179, 127, 0, 0, 0, 127, 0, 0, 129, 0, 0, 0, 60, 32, 234, 136, 190, 15, 182, 104, 190, 22, 69, 191, 189, 127, 0, 0, 0, 127, 0, 0, 129, 0, 0, 0, 60, 32, 234, 136, 190, 13, 182, 104, 190, 6, 69, 191, 61, 127, 0, 0, 0, 127, 0, 0, 129, 0, 0, 0, 60, 32, 234, 136, 190, 17, 106, 81, 190, 188, 211, 10, 190, 127, 0, 0, 0, 127, 0, 0, 129, 0, 0, 0, 60, 33, 234, 136, 190, 15, 106, 81, 190, 174, 211, 10, 62, 127, 0, 0, 0, 127, 0, 0, 129, 0, 0, 0, 60, 29, 234, 136, 190, 107, 18, 50, 190, 95, 172, 48, 190, 127, 0, 0, 0, 127, 0, 0, 129, 0, 0, 0, 60, 30, 234, 136, 190, 102, 18, 50, 190, 83, 172, 48, 62, 127, 0, 0, 0, 127, 0, 0, 129, 0, 0, 0, 60, 29, 234, 136, 190, 238, 228, 11, 190, 232, 184, 79, 190, 127, 0, 0, 0, 127, 0, 0, 129, 0, 0, 0, 60, 30, 234, 136, 190, 233, 228, 11, 190, 218, 184, 79, 62, 127, 0, 0, 0, 127, 0, 0, 129, 0, 0, 0, 60, 29, 234, 136, 190, 248, 179, 192, 189, 86, 201, 102, 190, 127, 0, 0, 0, 127, 0, 0, 129, 0, 0, 0, 60, 30, 234, 136, 190, 234, 179, 192, 189, 65, 201, 102, 62, 127, 0, 0, 0, 127, 0, 0, 129, 0, 0, 0, 60, 28, 234, 136, 190, 53, 119, 68, 189, 93, 252, 116, 190, 127, 0, 0, 0, 127, 0, 0, 129, 0, 0, 0, 60, 30, 234, 136, 190, 28, 119, 68, 189, 76, 252, 116, 62, 127, 0, 0, 0, 127, 0, 0, 129, 0, 0, 0, 60, 28, 234, 136, 190, 51, 98, 124, 51, 156, 199, 121, 190, 127, 0, 0, 0, 127, 0, 0, 129, 0, 0, 0, 60, 30, 234, 136, 190, 33, 140, 217, 51, 137, 199, 121, 62, 127, 0, 0, 0, 127, 0, 0, 129, 0, 0, 0, 60, 28, 234, 136, 190, 82, 119, 68, 61, 93, 252, 116, 190, 127, 0, 0, 0, 127, 0, 0, 129, 0, 0, 0, 60, 30, 234, 136, 190, 78, 119, 68, 61, 76, 252, 116, 62, 127, 0, 0, 0, 127, 0, 0, 129, 0, 0, 0, 60, 29, 234, 136, 190, 8, 180, 192, 61, 65, 201, 102, 62, 127, 0, 0, 0, 127, 0, 0, 129, 0, 0, 0, 60, 28, 234, 136, 190, 10, 180, 192, 61, 86, 201, 102, 190, 127, 0, 0, 0, 127, 0, 0, 129, 0, 0, 0, 60, 29, 234, 136, 190, 245, 228, 11, 62, 216, 184, 79, 62, 127, 0, 0, 0, 127, 0, 0, 129, 0, 0, 0, 60, 28, 234, 136, 190, 244, 228, 11, 62, 234, 184, 79, 190, 127, 0, 0, 0, 127, 0, 0, 129, 0, 0, 0, 60, 28, 234, 136, 190, 115, 18, 50, 62, 97, 172, 48, 190, 127, 0, 0, 0, 127, 0, 0, 129, 0, 0, 0, 60, 29, 234, 136, 190, 114, 18, 50, 62, 80, 172, 48, 62, 127, 0, 0, 0, 127, 0, 0, 129, 0, 0, 0, 60, 26, 234, 136, 190, 27, 106, 81, 62, 171, 211, 10, 62, 127, 0, 0, 0, 127, 0, 0, 129, 0, 0, 0, 60, 25, 234, 136, 190, 24, 106, 81, 62, 191, 211, 10, 190, 127, 0, 0, 0, 127, 0, 0, 129, 0, 0, 0, 60, 26, 234, 136, 190, 25, 182, 104, 62, 27, 69, 191, 189, 127, 0, 0, 0, 127, 0, 0, 129, 0, 0, 0, 60, 26, 234, 136, 190, 22, 182, 104, 62, 0, 69, 191, 61, 127, 0, 0, 0, 127, 0, 0, 129, 0, 0, 0, 60, 26, 234, 136, 190, 146, 15, 119, 62, 106, 7, 67, 61, 127, 0, 0, 0, 127, 0, 0, 129, 0, 0, 0, 60, 26, 234, 136, 190, 150, 15, 119, 62, 165, 7, 67, 189, 127, 0, 0, 0, 127, 0, 0, 129, 0, 0, 0, 60, 26, 234, 136, 190, 32, 232, 123, 62, 106, 200, 228, 179, 127, 0, 0, 0, 127, 0, 0, 129, 0, 0, 0, 60, 245, 101, 134, 190, 74, 232, 83, 61, 238, 246, 131, 190, 125, 255, 18, 0, 127, 0, 0, 129, 223, 24, 251, 59, 200, 244, 134, 190, 68, 239, 114, 51, 2, 215, 130, 190, 125, 255, 18, 0, 127, 0, 0, 129, 0, 0, 0, 60, 245, 101, 134, 190, 252, 124, 112, 51, 200, 140, 134, 190, 125, 255, 18, 0, 127, 0, 0, 129, 223, 24, 251, 59, 200, 244, 134, 190, 6, 231, 77, 61, 233, 83, 128, 190, 125, 255, 18, 0, 127, 0, 0, 129, 0, 0, 0, 60, 245, 101, 134, 190, 74, 232, 83, 61, 238, 246, 131, 190, 125, 251, 18, 0, 127, 0, 0, 129, 223, 24, 251, 59, 199, 244, 134, 190, 103, 244, 201, 61, 94, 198, 113, 190, 125, 251, 18, 0, 127, 0, 0, 129, 0, 0, 0, 60, 200, 244, 134, 190, 6, 231, 77, 61, 233, 83, 128, 190, 125, 251, 18, 0, 127, 0, 0, 129, 0, 0, 0, 60, 244, 101, 134, 190, 218, 213, 207, 61, 168, 157, 120, 190, 125, 251, 18, 0, 127, 0, 0, 129, 223, 24, 251, 59, 244, 101, 134, 190, 218, 213, 207, 61, 168, 157, 120, 190, 125, 248, 16, 0, 127, 0, 0, 129, 223, 24, 251, 59, 199, 244, 134, 190, 29, 155, 18, 62, 25, 155, 89, 190, 125, 248, 16, 0, 127, 0, 0, 129, 0, 0, 0, 60, 199, 244, 134, 190, 103, 244, 201, 61, 94, 198, 113, 190, 125, 248, 16, 0, 127, 0, 0, 129, 0, 0, 0, 60, 244, 101, 134, 190, 111, 221, 22, 62, 146, 191, 95, 190, 125, 248, 16, 0, 127, 0, 0, 129, 223, 24, 251, 59, 244, 101, 134, 190, 111, 221, 22, 62, 146, 191, 95, 190, 125, 245, 14, 0, 127, 0, 0, 129, 223, 24, 251, 59, 199, 244, 134, 190, 192, 155, 58, 62, 167, 18, 57, 190, 125, 245, 14, 0, 127, 0, 0, 129, 0, 0, 0, 60, 199, 244, 134, 190, 29, 155, 18, 62, 25, 155, 89, 190, 125, 245, 14, 0, 127, 0, 0, 129, 0, 0, 0, 60, 244, 101, 134, 190, 191, 3, 64, 62, 71, 72, 62, 190, 125, 245, 14, 0, 127, 0, 0, 129, 223, 24, 251, 59, 244, 101, 134, 190, 191, 3, 64, 62, 71, 72, 62, 190, 125, 242, 11, 0, 127, 0, 0, 129, 223, 24, 251, 59, 196, 244, 134, 190, 252, 113, 91, 62, 12, 108, 17, 190, 125, 242, 11, 0, 127, 0, 0, 129, 0, 0, 0, 60, 199, 244, 134, 190, 192, 155, 58, 62, 167, 18, 57, 190, 125, 242, 11, 0, 127, 0, 0, 129, 0, 0, 0, 60, 242, 101, 134, 190, 9, 201, 97, 62, 2, 129, 21, 190, 125, 242, 11, 0, 127, 0, 0, 129, 223, 24, 251, 59, 242, 101, 134, 190, 9, 201, 97, 62, 2, 129, 21, 190, 125, 240, 8, 0, 127, 0, 0, 129, 223, 24, 251, 59, 197, 244, 134, 190, 185, 217, 115, 62, 153, 89, 200, 189, 125, 240, 8, 0, 127, 0, 0, 129, 0, 0, 0, 60, 196, 244, 134, 190, 252, 113, 91, 62, 12, 108, 17, 190, 125, 240, 8, 0, 127, 0, 0, 129, 0, 0, 0, 60, 242, 101, 134, 190, 17, 225, 122, 62, 209, 245, 205, 189, 125, 240, 8, 0, 127, 0, 0, 129, 223, 24, 251, 59, 242, 101, 134, 190, 17, 225, 122, 62, 209, 245, 205, 189, 125, 239, 5, 0, 127, 0, 0, 129, 223, 24, 251, 59, 197, 244, 134, 190, 218, 112, 129, 62, 193, 72, 76, 189, 125, 239, 5, 0, 127, 0, 0, 129, 0, 0, 0, 60, 197, 244, 134, 190, 185, 217, 115, 62, 153, 89, 200, 189, 125, 239, 5, 0, 127, 0, 0, 129, 0, 0, 0, 60, 243, 101, 134, 190, 125, 42, 133, 62, 214, 254, 81, 189, 125, 239, 5, 0, 127, 0, 0, 129, 223, 24, 251, 59, 243, 101, 134, 190, 125, 42, 133, 62, 214, 254, 81, 189, 125, 238, 1, 0, 127, 0, 0, 129, 223, 24, 251, 59, 198, 244, 134, 190, 140, 250, 131, 62, 25, 72, 213, 179, 125, 238, 1, 0, 127, 0, 0, 129, 0, 0, 0, 60, 197, 244, 134, 190, 218, 112, 129, 62, 193, 72, 76, 189, 125, 238, 1, 0, 127, 0, 0, 129, 0, 0, 0, 60, 243, 101, 134, 190, 90, 198, 135, 62, 226, 98, 194, 179, 125, 238, 1, 0, 127, 0, 0, 129, 223, 24, 251, 59, 198, 244, 134, 190, 140, 250, 131, 62, 25, 72, 213, 179, 125, 238, 255, 0, 127, 0, 0, 127, 0, 0, 0, 60, 243, 101, 134, 190, 123, 42, 133, 62, 152, 254, 81, 61, 125, 238, 255, 0, 127, 0, 0, 127, 223, 24, 251, 59, 197, 244, 134, 190, 215, 112, 129, 62, 133, 72, 76, 61, 125, 238, 255, 0, 127, 0, 0, 127, 0, 0, 0, 60, 243, 101, 134, 190, 90, 198, 135, 62, 226, 98, 194, 179, 125, 238, 255, 0, 127, 0, 0, 127, 223, 24, 251, 59, 197, 244, 134, 190, 215, 112, 129, 62, 133, 72, 76, 61, 125, 239, 251, 0, 127, 0, 0, 127, 0, 0, 0, 60, 242, 101, 134, 190, 15, 225, 122, 62, 181, 245, 205, 61, 125, 239, 251, 0, 127, 0, 0, 127, 223, 24, 251, 59, 197, 244, 134, 190, 183, 217, 115, 62, 126, 89, 200, 61, 125, 239, 251, 0, 127, 0, 0, 127, 0, 0, 0, 60, 243, 101, 134, 190, 123, 42, 133, 62, 152, 254, 81, 61, 125, 239, 251, 0, 127, 0, 0, 127, 223, 24, 251, 59, 197, 244, 134, 190, 183, 217, 115, 62, 126, 89, 200, 61, 125, 240, 248, 0, 127, 0, 0, 127, 0, 0, 0, 60, 243, 101, 134, 190, 11, 201, 97, 62, 238, 128, 21, 62, 125, 240, 248, 0, 127, 0, 0, 127, 223, 24, 251, 59, 198, 244, 134, 190, 255, 113, 91, 62, 248, 107, 17, 62, 125, 240, 248, 0, 127, 0, 0, 127, 0, 0, 0, 60, 242, 101, 134, 190, 15, 225, 122, 62, 181, 245, 205, 61, 125, 240, 248, 0, 127, 0, 0, 127, 223, 24, 251, 59, 198, 244, 134, 190, 255, 113, 91, 62, 248, 107, 17, 62, 125, 242, 245, 0, 127, 0, 0, 127, 0, 0, 0, 60, 246, 101, 134, 190, 190, 3, 64, 62, 54, 72, 62, 62, 125, 242, 245, 0, 127, 0, 0, 127, 223, 24, 251, 59, 200, 244, 134, 190, 192, 155, 58, 62, 150, 18, 57, 62, 125, 242, 245, 0, 127, 0, 0, 127, 0, 0, 0, 60, 243, 101, 134, 190, 11, 201, 97, 62, 238, 128, 21, 62, 125, 242, 245, 0, 127, 0, 0, 127, 223, 24, 251, 59, 200, 244, 134, 190, 192, 155, 58, 62, 150, 18, 57, 62, 125, 245, 242, 0, 127, 0, 0, 127, 0, 0, 0, 60, 246, 101, 134, 190, 110, 221, 22, 62, 130, 191, 95, 62, 125, 245, 242, 0, 127, 0, 0, 127, 223, 24, 251, 59, 200, 244, 134, 190, 29, 155, 18, 62, 7, 155, 89, 62, 125, 245, 242, 0, 127, 0, 0, 127, 0, 0, 0, 60, 246, 101, 134, 190, 190, 3, 64, 62, 54, 72, 62, 62, 125, 245, 242, 0, 127, 0, 0, 127, 223, 24, 251, 59, 200, 244, 134, 190, 29, 155, 18, 62, 7, 155, 89, 62, 125, 248, 240, 0, 127, 0, 0, 127, 0, 0, 0, 60, 246, 101, 134, 190, 214, 213, 207, 61, 147, 157, 120, 62, 125, 248, 240, 0, 127, 0, 0, 127, 223, 24, 251, 59, 200, 244, 134, 190, 100, 244, 201, 61, 73, 198, 113, 62, 125, 248, 240, 0, 127, 0, 0, 127, 0, 0, 0, 60, 246, 101, 134, 190, 110, 221, 22, 62, 130, 191, 95, 62, 125, 248, 240, 0, 127, 0, 0, 127, 223, 24, 251, 59, 200, 244, 134, 190, 100, 244, 201, 61, 73, 198, 113, 62, 125, 251, 238, 0, 127, 0, 0, 127, 0, 0, 0, 60, 246, 101, 134, 190, 75, 232, 83, 61, 229, 246, 131, 62, 125, 251, 238, 0, 127, 0, 0, 127, 223, 24, 251, 59, 201, 244, 134, 190, 2, 231, 77, 61, 225, 83, 128, 62, 125, 251, 238, 0, 127, 0, 0, 127, 0, 0, 0, 60, 246, 101, 134, 190, 214, 213, 207, 61, 147, 157, 120, 62, 125, 251, 238, 0, 127, 0, 0, 127, 223, 24, 251, 59, 201, 244, 134, 190, 2, 231, 77, 61, 225, 83, 128, 62, 125, 255, 238, 0, 127, 0, 0, 127, 0, 0, 0, 60, 246, 101, 134, 190, 97, 144, 218, 51, 190, 140, 134, 62, 125, 255, 238, 0, 127, 0, 0, 127, 223, 24, 251, 59, 201, 244, 134, 190, 126, 19, 217, 51, 249, 214, 130, 62, 125, 255, 238, 0, 127, 0, 0, 127, 0, 0, 0, 60, 246, 101, 134, 190, 75, 232, 83, 61, 229, 246, 131, 62, 125, 255, 238, 0, 127, 0, 0, 127, 223, 24, 251, 59, 201, 244, 134, 190, 206, 230, 77, 189, 225, 83, 128, 62, 125, 1, 238, 0, 127, 0, 0, 127, 0, 0, 0, 60, 246, 101, 134, 190, 97, 144, 218, 51, 190, 140, 134, 62, 125, 1, 238, 0, 127, 0, 0, 127, 223, 24, 251, 59, 246, 101, 134, 190, 20, 232, 83, 189, 229, 246, 131, 62, 125, 1, 238, 0, 127, 0, 0, 127, 223, 24, 251, 59, 201, 244, 134, 190, 126, 19, 217, 51, 249, 214, 130, 62, 125, 1, 238, 0, 127, 0, 0, 127, 0, 0, 0, 60, 202, 244, 134, 190, 71, 244, 201, 189, 73, 198, 113, 62, 125, 5, 238, 0, 127, 0, 0, 127, 0, 0, 0, 60, 246, 101, 134, 190, 20, 232, 83, 189, 229, 246, 131, 62, 125, 5, 238, 0, 127, 0, 0, 127, 223, 24, 251, 59, 247, 101, 134, 190, 186, 213, 207, 189, 147, 157, 120, 62, 125, 5, 238, 0, 127, 0, 0, 127, 223, 24, 251, 59, 201, 244, 134, 190, 206, 230, 77, 189, 225, 83, 128, 62, 125, 5, 238, 0, 127, 0, 0, 127, 0, 0, 0, 60, 202, 244, 134, 190, 18, 155, 18, 190, 9, 155, 89, 62, 125, 8, 240, 0, 127, 0, 0, 127, 0, 0, 0, 60, 247, 101, 134, 190, 186, 213, 207, 189, 147, 157, 120, 62, 125, 8, 240, 0, 127, 0, 0, 127, 223, 24, 251, 59, 247, 101, 134, 190, 98, 221, 22, 190, 132, 191, 95, 62, 125, 8, 240, 0, 127, 0, 0, 127, 223, 24, 251, 59, 202, 244, 134, 190, 71, 244, 201, 189, 73, 198, 113, 62, 125, 8, 240, 0, 127, 0, 0, 127, 0, 0, 0, 60, 202, 244, 134, 190, 179, 155, 58, 190, 152, 18, 57, 62, 125, 11, 242, 0, 127, 0, 0, 127, 0, 0, 0, 60, 247, 101, 134, 190, 98, 221, 22, 190, 132, 191, 95, 62, 125, 11, 242, 0, 127, 0, 0, 127, 223, 24, 251, 59, 247, 101, 134, 190, 179, 3, 64, 190, 56, 72, 62, 62, 125, 11, 242, 0, 127, 0, 0, 127, 223, 24, 251, 59, 202, 244, 134, 190, 18, 155, 18, 190, 9, 155, 89, 62, 125, 11, 242, 0, 127, 0, 0, 127, 0, 0, 0, 60, 204, 244, 134, 190, 243, 113, 91, 190, 251, 107, 17, 62, 125, 14, 245, 0, 127, 0, 0, 127, 0, 0, 0, 60, 247, 101, 134, 190, 179, 3, 64, 190, 56, 72, 62, 62, 125, 14, 245, 0, 127, 0, 0, 127, 223, 24, 251, 59, 250, 101, 134, 190, 255, 200, 97, 190, 241, 128, 21, 62, 125, 14, 245, 0, 127, 0, 0, 127, 223, 24, 251, 59, 202, 244, 134, 190, 179, 155, 58, 190, 152, 18, 57, 62, 125, 14, 245, 0, 127, 0, 0, 127, 0, 0, 0, 60, 204, 244, 134, 190, 174, 217, 115, 190, 131, 89, 200, 61, 125, 16, 248, 0, 127, 0, 0, 127, 0, 0, 0, 60, 250, 101, 134, 190, 255, 200, 97, 190, 241, 128, 21, 62, 125, 16, 248, 0, 127, 0, 0, 127, 223, 24, 251, 59, 249, 101, 134, 190, 5, 225, 122, 190, 186, 245, 205, 61, 125, 16, 248, 0, 127, 0, 0, 127, 223, 24, 251, 59, 204, 244, 134, 190, 243, 113, 91, 190, 251, 107, 17, 62, 125, 16, 248, 0, 127, 0, 0, 127, 0, 0, 0, 60, 204, 244, 134, 190, 208, 112, 129, 190, 144, 72, 76, 61, 125, 17, 251, 0, 127, 0, 0, 127, 0, 0, 0, 60, 249, 101, 134, 190, 5, 225, 122, 190, 186, 245, 205, 61, 125, 17, 251, 0, 127, 0, 0, 127, 223, 24, 251, 59, 248, 101, 134, 190, 117, 42, 133, 190, 165, 254, 81, 61, 125, 17, 251, 0, 127, 0, 0, 127, 223, 24, 251, 59, 204, 244, 134, 190, 174, 217, 115, 190, 131, 89, 200, 61, 125, 17, 251, 0, 127, 0, 0, 127, 0, 0, 0, 60, 203, 244, 134, 190, 133, 250, 131, 190, 51, 75, 104, 179, 125, 18, 255, 0, 127, 0, 0, 127, 0, 0, 0, 60, 248, 101, 134, 190, 117, 42, 133, 190, 165, 254, 81, 61, 125, 18, 255, 0, 127, 0, 0, 127, 223, 24, 251, 59, 248, 101, 134, 190, 84, 198, 135, 190, 76, 234, 60, 179, 125, 18, 255, 0, 127, 0, 0, 127, 223, 24, 251, 59, 204, 244, 134, 190, 208, 112, 129, 190, 144, 72, 76, 61, 125, 18, 255, 0, 127, 0, 0, 127, 0, 0, 0, 60, 248, 101, 134, 190, 118, 42, 133, 190, 201, 254, 81, 189, 125, 18, 1, 0, 127, 0, 0, 129, 223, 24, 251, 59, 203, 244, 134, 190, 133, 250, 131, 190, 51, 75, 104, 179, 125, 18, 1, 0, 127, 0, 0, 129, 0, 0, 0, 60, 248, 101, 134, 190, 84, 198, 135, 190, 76, 234, 60, 179, 125, 18, 1, 0, 127, 0, 0, 129, 223, 24, 251, 59, 204, 244, 134, 190, 211, 112, 129, 190, 182, 72, 76, 189, 125, 18, 1, 0, 127, 0, 0, 129, 0, 0, 0, 60, 249, 101, 134, 190, 8, 225, 122, 190, 204, 245, 205, 189, 125, 17, 5, 0, 127, 0, 0, 129, 223, 24, 251, 59, 204, 244, 134, 190, 211, 112, 129, 190, 182, 72, 76, 189, 125, 17, 5, 0, 127, 0, 0, 129, 0, 0, 0, 60, 248, 101, 134, 190, 118, 42, 133, 190, 201, 254, 81, 189, 125, 17, 5, 0, 127, 0, 0, 129, 223, 24, 251, 59, 204, 244, 134, 190, 176, 217, 115, 190, 147, 89, 200, 189, 125, 17, 5, 0, 127, 0, 0, 129, 0, 0, 0, 60, 248, 101, 134, 190, 2, 201, 97, 190, 0, 129, 21, 190, 125, 16, 8, 0, 127, 0, 0, 129, 223, 24, 251, 59, 204, 244, 134, 190, 176, 217, 115, 190, 147, 89, 200, 189, 125, 16, 8, 0, 127, 0, 0, 129, 0, 0, 0, 60, 249, 101, 134, 190, 8, 225, 122, 190, 204, 245, 205, 189, 125, 16, 8, 0, 127, 0, 0, 129, 223, 24, 251, 59, 203, 244, 134, 190, 246, 113, 91, 190, 9, 108, 17, 190, 125, 16, 8, 0, 127, 0, 0, 129, 0, 0, 0, 60, 246, 101, 134, 190, 186, 3, 64, 190, 68, 72, 62, 190, 125, 14, 11, 0, 127, 0, 0, 129, 223, 24, 251, 59, 203, 244, 134, 190, 246, 113, 91, 190, 9, 108, 17, 190, 125, 14, 11, 0, 127, 0, 0, 129, 0, 0, 0, 60, 248, 101, 134, 190, 2, 201, 97, 190, 0, 129, 21, 190, 125, 14, 11, 0, 127, 0, 0, 129, 223, 24, 251, 59, 200, 244, 134, 190, 185, 155, 58, 190, 164, 18, 57, 190, 125, 14, 11, 0, 127, 0, 0, 129, 0, 0, 0, 60, 246, 101, 134, 190, 104, 221, 22, 190, 143, 191, 95, 190, 125, 11, 14, 0, 127, 0, 0, 129, 223, 24, 251, 59, 200, 244, 134, 190, 185, 155, 58, 190, 164, 18, 57, 190, 125, 11, 14, 0, 127, 0, 0, 129, 0, 0, 0, 60, 246, 101, 134, 190, 186, 3, 64, 190, 68, 72, 62, 190, 125, 11, 14, 0, 127, 0, 0, 129, 223, 24, 251, 59, 200, 244, 134, 190, 23, 155, 18, 190, 23, 155, 89, 190, 125, 11, 14, 0, 127, 0, 0, 129, 0, 0, 0, 60, 246, 101, 134, 190, 201, 213, 207, 189, 168, 157, 120, 190, 125, 8, 16, 0, 127, 0, 0, 129, 223, 24, 251, 59, 200, 244, 134, 190, 23, 155, 18, 190, 23, 155, 89, 190, 125, 8, 16, 0, 127, 0, 0, 129, 0, 0, 0, 60, 246, 101, 134, 190, 104, 221, 22, 190, 143, 191, 95, 190, 125, 8, 16, 0, 127, 0, 0, 129, 223, 24, 251, 59, 200, 244, 134, 190, 84, 244, 201, 189, 94, 198, 113, 190, 125, 8, 16, 0, 127, 0, 0, 129, 0, 0, 0, 60, 245, 101, 134, 190, 46, 232, 83, 189, 238, 246, 131, 190, 125, 5, 18, 0, 127, 0, 0, 129, 223, 24, 251, 59, 200, 244, 134, 190, 84, 244, 201, 189, 94, 198, 113, 190, 125, 5, 18, 0, 127, 0, 0, 129, 0, 0, 0, 60, 246, 101, 134, 190, 201, 213, 207, 189, 168, 157, 120, 190, 125, 5, 18, 0, 127, 0, 0, 129, 223, 24, 251, 59, 200, 244, 134, 190, 233, 230, 77, 189, 233, 83, 128, 190, 125, 5, 18, 0, 127, 0, 0, 129, 0, 0, 0, 60, 245, 101, 134, 190, 252, 124, 112, 51, 200, 140, 134, 190, 125, 1, 18, 0, 127, 0, 0, 129, 223, 24, 251, 59, 200, 244, 134, 190, 233, 230, 77, 189, 233, 83, 128, 190, 125, 1, 18, 0, 127, 0, 0, 129, 0, 0, 0, 60, 245, 101, 134, 190, 46, 232, 83, 189, 238, 246, 131, 190, 125, 1, 18, 0, 127, 0, 0, 129, 223, 24, 251, 59, 200, 244, 134, 190, 68, 239, 114, 51, 2, 215, 130, 190, 125, 1, 18, 0, 127, 0, 0, 129, 0, 0, 0, 60, 200, 244, 134, 190, 6, 231, 77, 61, 233, 83, 128, 190, 120, 253, 39, 0, 127, 0, 0, 129, 0, 0, 0, 60, 28, 234, 136, 190, 51, 98, 124, 51, 156, 199, 121, 190, 120, 253, 39, 0, 127, 0, 0, 129, 0, 0, 0, 60, 200, 244, 134, 190, 68, 239, 114, 51, 2, 215, 130, 190, 120, 253, 39, 0, 127, 0, 0, 129, 0, 0, 0, 60, 28, 234, 136, 190, 82, 119, 68, 61, 93, 252, 116, 190, 120, 253, 39, 0, 127, 0, 0, 129, 0, 0, 0, 60, 200, 244, 134, 190, 6, 231, 77, 61, 233, 83, 128, 190, 120, 245, 38, 0, 127, 0, 0, 129, 0, 0, 0, 60, 28, 234, 136, 190, 10, 180, 192, 61, 86, 201, 102, 190, 120, 245, 38, 0, 127, 0, 0, 129, 0, 0, 0, 60, 28, 234, 136, 190, 82, 119, 68, 61, 93, 252, 116, 190, 120, 245, 38, 0, 127, 0, 0, 129, 0, 0, 0, 60, 199, 244, 134, 190, 103, 244, 201, 61, 94, 198, 113, 190, 120, 245, 38, 0, 127, 0, 0, 129, 0, 0, 0, 60, 199, 244, 134, 190, 103, 244, 201, 61, 94, 198, 113, 190, 120, 238, 35, 0, 127, 0, 0, 129, 0, 0, 0, 60, 28, 234, 136, 190, 244, 228, 11, 62, 234, 184, 79, 190, 120, 238, 35, 0, 127, 0, 0, 129, 0, 0, 0, 60, 28, 234, 136, 190, 10, 180, 192, 61, 86, 201, 102, 190, 120, 238, 35, 0, 127, 0, 0, 129, 0, 0, 0, 60, 199, 244, 134, 190, 29, 155, 18, 62, 25, 155, 89, 190, 120, 238, 35, 0, 127, 0, 0, 129, 0, 0, 0, 60, 199, 244, 134, 190, 29, 155, 18, 62, 25, 155, 89, 190, 120, 231, 30, 0, 127, 0, 0, 129, 0, 0, 0, 60, 28, 234, 136, 190, 115, 18, 50, 62, 97, 172, 48, 190, 120, 231, 30, 0, 127, 0, 0, 129, 0, 0, 0, 60, 28, 234, 136, 190, 244, 228, 11, 62, 234, 184, 79, 190, 120, 231, 30, 0, 127, 0, 0, 129, 0, 0, 0, 60, 199, 244, 134, 190, 192, 155, 58, 62, 167, 18, 57, 190, 120, 231, 30, 0, 127, 0, 0, 129, 0, 0, 0, 60, 199, 244, 134, 190, 192, 155, 58, 62, 167, 18, 57, 190, 120, 226, 25, 0, 127, 0, 0, 129, 0, 0, 0, 60, 25, 234, 136, 190, 24, 106, 81, 62, 191, 211, 10, 190, 120, 226, 25, 0, 127, 0, 0, 129, 0, 0, 0, 60, 28, 234, 136, 190, 115, 18, 50, 62, 97, 172, 48, 190, 120, 226, 25, 0, 127, 0, 0, 129, 0, 0, 0, 60, 196, 244, 134, 190, 252, 113, 91, 62, 12, 108, 17, 190, 120, 226, 25, 0, 127, 0, 0, 129, 0, 0, 0, 60, 196, 244, 134, 190, 252, 113, 91, 62, 12, 108, 17, 190, 120, 222, 18, 0, 127, 0, 0, 129, 0, 0, 0, 60, 26, 234, 136, 190, 25, 182, 104, 62, 27, 69, 191, 189, 120, 222, 18, 0, 127, 0, 0, 129, 0, 0, 0, 60, 25, 234, 136, 190, 24, 106, 81, 62, 191, 211, 10, 190, 120, 222, 18, 0, 127, 0, 0, 129, 0, 0, 0, 60, 197, 244, 134, 190, 185, 217, 115, 62, 153, 89, 200, 189, 120, 222, 18, 0, 127, 0, 0, 129, 0, 0, 0, 60, 197, 244, 134, 190, 185, 217, 115, 62, 153, 89, 200, 189, 120, 219, 11, 0, 127, 0, 0, 129, 0, 0, 0, 60, 26, 234, 136, 190, 150, 15, 119, 62, 165, 7, 67, 189, 120, 219, 11, 0, 127, 0, 0, 129, 0, 0, 0, 60, 26, 234, 136, 190, 25, 182, 104, 62, 27, 69, 191, 189, 120, 219, 11, 0, 127, 0, 0, 129, 0, 0, 0, 60, 197, 244, 134, 190, 218, 112, 129, 62, 193, 72, 76, 189, 120, 219, 11, 0, 127, 0, 0, 129, 0, 0, 0, 60, 197, 244, 134, 190, 218, 112, 129, 62, 193, 72, 76, 189, 120, 217, 3, 0, 127, 0, 0, 129, 0, 0, 0, 60, 26, 234, 136, 190, 32, 232, 123, 62, 106, 200, 228, 179, 120, 217, 3, 0, 127, 0, 0, 129, 0, 0, 0, 60, 26, 234, 136, 190, 150, 15, 119, 62, 165, 7, 67, 189, 120, 217, 3, 0, 127, 0, 0, 129, 0, 0, 0, 60, 198, 244, 134, 190, 140, 250, 131, 62, 25, 72, 213, 179, 120, 217, 3, 0, 127, 0, 0, 129, 0, 0, 0, 60, 26, 234, 136, 190, 32, 232, 123, 62, 106, 200, 228, 179, 120, 217, 253, 0, 127, 0, 0, 127, 0, 0, 0, 60, 197, 244, 134, 190, 215, 112, 129, 62, 133, 72, 76, 61, 120, 217, 253, 0, 127, 0, 0, 127, 0, 0, 0, 60, 26, 234, 136, 190, 146, 15, 119, 62, 106, 7, 67, 61, 120, 217, 253, 0, 127, 0, 0, 127, 0, 0, 0, 60, 198, 244, 134, 190, 140, 250, 131, 62, 25, 72, 213, 179, 120, 217, 253, 0, 127, 0, 0, 127, 0, 0, 0, 60, 26, 234, 136, 190, 146, 15, 119, 62, 106, 7, 67, 61, 120, 219, 245, 0, 127, 0, 0, 127, 0, 0, 0, 60, 197, 244, 134, 190, 183, 217, 115, 62, 126, 89, 200, 61, 120, 219, 245, 0, 127, 0, 0, 127, 0, 0, 0, 60, 26, 234, 136, 190, 22, 182, 104, 62, 0, 69, 191, 61, 120, 219, 245, 0, 127, 0, 0, 127, 0, 0, 0, 60, 197, 244, 134, 190, 215, 112, 129, 62, 133, 72, 76, 61, 120, 219, 245, 0, 127, 0, 0, 127, 0, 0, 0, 60, 26, 234, 136, 190, 22, 182, 104, 62, 0, 69, 191, 61, 120, 222, 238, 0, 127, 0, 0, 127, 0, 0, 0, 60, 198, 244, 134, 190, 255, 113, 91, 62, 248, 107, 17, 62, 120, 222, 238, 0, 127, 0, 0, 127, 0, 0, 0, 60, 26, 234, 136, 190, 27, 106, 81, 62, 171, 211, 10, 62, 120, 222, 238, 0, 127, 0, 0, 127, 0, 0, 0, 60, 197, 244, 134, 190, 183, 217, 115, 62, 126, 89, 200, 61, 120, 222, 238, 0, 127, 0, 0, 127, 0, 0, 0, 60, 26, 234, 136, 190, 27, 106, 81, 62, 171, 211, 10, 62, 120, 226, 231, 0, 127, 0, 0, 127, 0, 0, 0, 60, 200, 244, 134, 190, 192, 155, 58, 62, 150, 18, 57, 62, 120, 226, 231, 0, 127, 0, 0, 127, 0, 0, 0, 60, 29, 234, 136, 190, 114, 18, 50, 62, 80, 172, 48, 62, 120, 226, 231, 0, 127, 0, 0, 127, 0, 0, 0, 60, 198, 244, 134, 190, 255, 113, 91, 62, 248, 107, 17, 62, 120, 226, 231, 0, 127, 0, 0, 127, 0, 0, 0, 60, 29, 234, 136, 190, 114, 18, 50, 62, 80, 172, 48, 62, 120, 231, 226, 0, 127, 0, 0, 127, 0, 0, 0, 60, 200, 244, 134, 190, 29, 155, 18, 62, 7, 155, 89, 62, 120, 231, 226, 0, 127, 0, 0, 127, 0, 0, 0, 60, 29, 234, 136, 190, 245, 228, 11, 62, 216, 184, 79, 62, 120, 231, 226, 0, 127, 0, 0, 127, 0, 0, 0, 60, 200, 244, 134, 190, 192, 155, 58, 62, 150, 18, 57, 62, 120, 231, 226, 0, 127, 0, 0, 127, 0, 0, 0, 60, 29, 234, 136, 190, 245, 228, 11, 62, 216, 184, 79, 62, 120, 238, 221, 0, 127, 0, 0, 127, 0, 0, 0, 60, 200, 244, 134, 190, 100, 244, 201, 61, 73, 198, 113, 62, 120, 238, 221, 0, 127, 0, 0, 127, 0, 0, 0, 60, 29, 234, 136, 190, 8, 180, 192, 61, 65, 201, 102, 62, 120, 238, 221, 0, 127, 0, 0, 127, 0, 0, 0, 60, 200, 244, 134, 190, 29, 155, 18, 62, 7, 155, 89, 62, 120, 238, 221, 0, 127, 0, 0, 127, 0, 0, 0, 60, 29, 234, 136, 190, 8, 180, 192, 61, 65, 201, 102, 62, 120, 245, 218, 0, 127, 0, 0, 127, 0, 0, 0, 60, 201, 244, 134, 190, 2, 231, 77, 61, 225, 83, 128, 62, 120, 245, 218, 0, 127, 0, 0, 127, 0, 0, 0, 60, 30, 234, 136, 190, 78, 119, 68, 61, 76, 252, 116, 62, 120, 245, 218, 0, 127, 0, 0, 127, 0, 0, 0, 60, 200, 244, 134, 190, 100, 244, 201, 61, 73, 198, 113, 62, 120, 245, 218, 0, 127, 0, 0, 127, 0, 0, 0, 60, 30, 234, 136, 190, 33, 140, 217, 51, 137, 199, 121, 62, 120, 253, 217, 0, 127, 0, 0, 127, 0, 0, 0, 60, 201, 244, 134, 190, 2, 231, 77, 61, 225, 83, 128, 62, 120, 253, 217, 0, 127, 0, 0, 127, 0, 0, 0, 60, 201, 244, 134, 190, 126, 19, 217, 51, 249, 214, 130, 62, 120, 253, 217, 0, 127, 0, 0, 127, 0, 0, 0, 60, 30, 234, 136, 190, 78, 119, 68, 61, 76, 252, 116, 62, 120, 253, 217, 0, 127, 0, 0, 127, 0, 0, 0, 60, 30, 234, 136, 190, 28, 119, 68, 189, 76, 252, 116, 62, 120, 3, 217, 0, 127, 0, 0, 127, 0, 0, 0, 60, 201, 244, 134, 190, 126, 19, 217, 51, 249, 214, 130, 62, 120, 3, 217, 0, 127, 0, 0, 127, 0, 0, 0, 60, 201, 244, 134, 190, 206, 230, 77, 189, 225, 83, 128, 62, 120, 3, 217, 0, 127, 0, 0, 127, 0, 0, 0, 60, 30, 234, 136, 190, 33, 140, 217, 51, 137, 199, 121, 62, 120, 3, 217, 0, 127, 0, 0, 127, 0, 0, 0, 60, 30, 234, 136, 190, 234, 179, 192, 189, 65, 201, 102, 62, 120, 11, 218, 0, 127, 0, 0, 127, 0, 0, 0, 60, 201, 244, 134, 190, 206, 230, 77, 189, 225, 83, 128, 62, 120, 11, 218, 0, 127, 0, 0, 127, 0, 0, 0, 60, 202, 244, 134, 190, 71, 244, 201, 189, 73, 198, 113, 62, 120, 11, 218, 0, 127, 0, 0, 127, 0, 0, 0, 60, 30, 234, 136, 190, 28, 119, 68, 189, 76, 252, 116, 62, 120, 11, 218, 0, 127, 0, 0, 127, 0, 0, 0, 60, 30, 234, 136, 190, 233, 228, 11, 190, 218, 184, 79, 62, 120, 18, 221, 0, 127, 0, 0, 127, 0, 0, 0, 60, 202, 244, 134, 190, 71, 244, 201, 189, 73, 198, 113, 62, 120, 18, 221, 0, 127, 0, 0, 127, 0, 0, 0, 60, 202, 244, 134, 190, 18, 155, 18, 190, 9, 155, 89, 62, 120, 18, 221, 0, 127, 0, 0, 127, 0, 0, 0, 60, 30, 234, 136, 190, 234, 179, 192, 189, 65, 201, 102, 62, 120, 18, 221, 0, 127, 0, 0, 127, 0, 0, 0, 60, 30, 234, 136, 190, 102, 18, 50, 190, 83, 172, 48, 62, 120, 25, 226, 0, 127, 0, 0, 127, 0, 0, 0, 60, 202, 244, 134, 190, 18, 155, 18, 190, 9, 155, 89, 62, 120, 25, 226, 0, 127, 0, 0, 127, 0, 0, 0, 60, 202, 244, 134, 190, 179, 155, 58, 190, 152, 18, 57, 62, 120, 25, 226, 0, 127, 0, 0, 127, 0, 0, 0, 60, 30, 234, 136, 190, 233, 228, 11, 190, 218, 184, 79, 62, 120, 25, 226, 0, 127, 0, 0, 127, 0, 0, 0, 60, 33, 234, 136, 190, 15, 106, 81, 190, 174, 211, 10, 62, 120, 30, 231, 0, 127, 0, 0, 127, 0, 0, 0, 60, 202, 244, 134, 190, 179, 155, 58, 190, 152, 18, 57, 62, 120, 30, 231, 0, 127, 0, 0, 127, 0, 0, 0, 60, 204, 244, 134, 190, 243, 113, 91, 190, 251, 107, 17, 62, 120, 30, 231, 0, 127, 0, 0, 127, 0, 0, 0, 60, 30, 234, 136, 190, 102, 18, 50, 190, 83, 172, 48, 62, 120, 30, 231, 0, 127, 0, 0, 127, 0, 0, 0, 60, 32, 234, 136, 190, 13, 182, 104, 190, 6, 69, 191, 61, 120, 34, 238, 0, 127, 0, 0, 127, 0, 0, 0, 60, 204, 244, 134, 190, 243, 113, 91, 190, 251, 107, 17, 62, 120, 34, 238, 0, 127, 0, 0, 127, 0, 0, 0, 60, 204, 244, 134, 190, 174, 217, 115, 190, 131, 89, 200, 61, 120, 34, 238, 0, 127, 0, 0, 127, 0, 0, 0, 60, 33, 234, 136, 190, 15, 106, 81, 190, 174, 211, 10, 62, 120, 34, 238, 0, 127, 0, 0, 127, 0, 0, 0, 60, 32, 234, 136, 190, 137, 15, 119, 190, 117, 7, 67, 61, 120, 37, 245, 0, 127, 0, 0, 127, 0, 0, 0, 60, 204, 244, 134, 190, 174, 217, 115, 190, 131, 89, 200, 61, 120, 37, 245, 0, 127, 0, 0, 127, 0, 0, 0, 60, 204, 244, 134, 190, 208, 112, 129, 190, 144, 72, 76, 61, 120, 37, 245, 0, 127, 0, 0, 127, 0, 0, 0, 60, 32, 234, 136, 190, 13, 182, 104, 190, 6, 69, 191, 61, 120, 37, 245, 0, 127, 0, 0, 127, 0, 0, 0, 60, 32, 234, 136, 190, 22, 232, 123, 190, 44, 21, 136, 179, 120, 39, 253, 0, 127, 0, 0, 127, 0, 0, 0, 60, 204, 244, 134, 190, 208, 112, 129, 190, 144, 72, 76, 61, 120, 39, 253, 0, 127, 0, 0, 127, 0, 0, 0, 60, 203, 244, 134, 190, 133, 250, 131, 190, 51, 75, 104, 179, 120, 39, 253, 0, 127, 0, 0, 127, 0, 0, 0, 60, 32, 234, 136, 190, 137, 15, 119, 190, 117, 7, 67, 61, 120, 39, 253, 0, 127, 0, 0, 127, 0, 0, 0, 60, 204, 244, 134, 190, 211, 112, 129, 190, 182, 72, 76, 189, 120, 39, 3, 0, 127, 0, 0, 129, 0, 0, 0, 60, 32, 234, 136, 190, 22, 232, 123, 190, 44, 21, 136, 179, 120, 39, 3, 0, 127, 0, 0, 129, 0, 0, 0, 60, 203, 244, 134, 190, 133, 250, 131, 190, 51, 75, 104, 179, 120, 39, 3, 0, 127, 0, 0, 129, 0, 0, 0, 60, 32, 234, 136, 190, 141, 15, 119, 190, 154, 7, 67, 189, 120, 39, 3, 0, 127, 0, 0, 129, 0, 0, 0, 60, 204, 244, 134, 190, 176, 217, 115, 190, 147, 89, 200, 189, 120, 37, 11, 0, 127, 0, 0, 129, 0, 0, 0, 60, 32, 234, 136, 190, 141, 15, 119, 190, 154, 7, 67, 189, 120, 37, 11, 0, 127, 0, 0, 129, 0, 0, 0, 60, 204, 244, 134, 190, 211, 112, 129, 190, 182, 72, 76, 189, 120, 37, 11, 0, 127, 0, 0, 129, 0, 0, 0, 60, 32, 234, 136, 190, 15, 182, 104, 190, 22, 69, 191, 189, 120, 37, 11, 0, 127, 0, 0, 129, 0, 0, 0, 60, 203, 244, 134, 190, 246, 113, 91, 190, 9, 108, 17, 190, 120, 34, 18, 0, 127, 0, 0, 129, 0, 0, 0, 60, 32, 234, 136, 190, 15, 182, 104, 190, 22, 69, 191, 189, 120, 34, 18, 0, 127, 0, 0, 129, 0, 0, 0, 60, 204, 244, 134, 190, 176, 217, 115, 190, 147, 89, 200, 189, 120, 34, 18, 0, 127, 0, 0, 129, 0, 0, 0, 60, 32, 234, 136, 190, 17, 106, 81, 190, 188, 211, 10, 190, 120, 34, 18, 0, 127, 0, 0, 129, 0, 0, 0, 60, 200, 244, 134, 190, 185, 155, 58, 190, 164, 18, 57, 190, 120, 30, 25, 0, 127, 0, 0, 129, 0, 0, 0, 60, 32, 234, 136, 190, 17, 106, 81, 190, 188, 211, 10, 190, 120, 30, 25, 0, 127, 0, 0, 129, 0, 0, 0, 60, 203, 244, 134, 190, 246, 113, 91, 190, 9, 108, 17, 190, 120, 30, 25, 0, 127, 0, 0, 129, 0, 0, 0, 60, 29, 234, 136, 190, 107, 18, 50, 190, 95, 172, 48, 190, 120, 30, 25, 0, 127, 0, 0, 129, 0, 0, 0, 60, 200, 244, 134, 190, 23, 155, 18, 190, 23, 155, 89, 190, 120, 25, 30, 0, 127, 0, 0, 129, 0, 0, 0, 60, 29, 234, 136, 190, 107, 18, 50, 190, 95, 172, 48, 190, 120, 25, 30, 0, 127, 0, 0, 129, 0, 0, 0, 60, 200, 244, 134, 190, 185, 155, 58, 190, 164, 18, 57, 190, 120, 25, 30, 0, 127, 0, 0, 129, 0, 0, 0, 60, 29, 234, 136, 190, 238, 228, 11, 190, 232, 184, 79, 190, 120, 25, 30, 0, 127, 0, 0, 129, 0, 0, 0, 60, 200, 244, 134, 190, 84, 244, 201, 189, 94, 198, 113, 190, 120, 18, 35, 0, 127, 0, 0, 129, 0, 0, 0, 60, 29, 234, 136, 190, 238, 228, 11, 190, 232, 184, 79, 190, 120, 18, 35, 0, 127, 0, 0, 129, 0, 0, 0, 60, 200, 244, 134, 190, 23, 155, 18, 190, 23, 155, 89, 190, 120, 18, 35, 0, 127, 0, 0, 129, 0, 0, 0, 60, 29, 234, 136, 190, 248, 179, 192, 189, 86, 201, 102, 190, 120, 18, 35, 0, 127, 0, 0, 129, 0, 0, 0, 60, 200, 244, 134, 190, 233, 230, 77, 189, 233, 83, 128, 190, 120, 11, 38, 0, 127, 0, 0, 129, 0, 0, 0, 60, 29, 234, 136, 190, 248, 179, 192, 189, 86, 201, 102, 190, 120, 11, 38, 0, 127, 0, 0, 129, 0, 0, 0, 60, 200, 244, 134, 190, 84, 244, 201, 189, 94, 198, 113, 190, 120, 11, 38, 0, 127, 0, 0, 129, 0, 0, 0, 60, 28, 234, 136, 190, 53, 119, 68, 189, 93, 252, 116, 190, 120, 11, 38, 0, 127, 0, 0, 129, 0, 0, 0, 60, 200, 244, 134, 190, 68, 239, 114, 51, 2, 215, 130, 190, 120, 3, 39, 0, 127, 0, 0, 129, 0, 0, 0, 60, 28, 234, 136, 190, 53, 119, 68, 189, 93, 252, 116, 190, 120, 3, 39, 0, 127, 0, 0, 129, 0, 0, 0, 60, 200, 244, 134, 190, 233, 230, 77, 189, 233, 83, 128, 190, 120, 3, 39, 0, 127, 0, 0, 129, 0, 0, 0, 60, 28, 234, 136, 190, 51, 98, 124, 51, 156, 199, 121, 190, 120, 3, 39, 0, 127, 0, 0, 129, 0, 0, 0, 60 ),
"array_index_data": PoolByteArray( 0, 0, 2, 0, 1, 0, 0, 0, 4, 0, 3, 0, 2, 0, 0, 0, 3, 0, 4, 0, 6, 0, 5, 0, 3, 0, 4, 0, 5, 0, 7, 0, 9, 0, 8, 0, 10, 0, 7, 0, 8, 0, 2, 0, 11, 0, 1, 0, 11, 0, 2, 0, 3, 0, 11, 0, 3, 0, 12, 0, 12, 0, 3, 0, 5, 0, 12, 0, 5, 0, 13, 0, 14, 0, 16, 0, 15, 0, 14, 0, 15, 0, 17, 0, 11, 0, 18, 0, 1, 0, 18, 0, 11, 0, 12, 0, 19, 0, 18, 0, 12, 0, 19, 0, 12, 0, 13, 0, 19, 0, 13, 0, 20, 0, 21, 0, 23, 0, 22, 0, 21, 0, 22, 0, 24, 0, 18, 0, 25, 0, 1, 0, 25, 0, 18, 0, 19, 0, 26, 0, 25, 0, 19, 0, 26, 0, 19, 0, 20, 0, 27, 0, 26, 0, 20, 0, 28, 0, 30, 0, 29, 0, 28, 0, 29, 0, 31, 0, 32, 0, 25, 0, 26, 0, 33, 0, 32, 0, 26, 0, 33, 0, 26, 0, 27, 0, 34, 0, 33, 0, 27, 0, 35, 0, 37, 0, 36, 0, 38, 0, 35, 0, 36, 0, 25, 0, 32, 0, 1, 0, 32, 0, 39, 0, 1, 0, 39, 0, 32, 0, 33, 0, 40, 0, 39, 0, 33, 0, 40, 0, 33, 0, 34, 0, 41, 0, 40, 0, 34, 0, 42, 0, 44, 0, 43, 0, 45, 0, 42, 0, 43, 0, 46, 0, 40, 0, 41, 0, 47, 0, 46, 0, 41, 0, 48, 0, 50, 0, 49, 0, 51, 0, 48, 0, 49, 0, 39, 0, 52, 0, 1, 0, 52, 0, 39, 0, 40, 0, 46, 0, 52, 0, 40, 0, 53, 0, 46, 0, 47, 0, 54, 0, 53, 0, 47, 0, 55, 0, 57, 0, 56, 0, 58, 0, 55, 0, 56, 0, 52, 0, 59, 0, 1, 0, 59, 0, 52, 0, 46, 0, 53, 0, 59, 0, 46, 0, 59, 0, 60, 0, 1, 0, 61, 0, 60, 0, 59, 0, 61, 0, 59, 0, 53, 0, 62, 0, 61, 0, 53, 0, 62, 0, 53, 0, 54, 0, 63, 0, 65, 0, 64, 0, 63, 0, 64, 0, 66, 0, 67, 0, 69, 0, 68, 0, 67, 0, 68, 0, 70, 0, 60, 0, 71, 0, 1, 0, 72, 0, 71, 0, 60, 0, 72, 0, 60, 0, 61, 0, 73, 0, 72, 0, 61, 0, 73, 0, 61, 0, 62, 0, 71, 0, 74, 0, 1, 0, 75, 0, 74, 0, 71, 0, 75, 0, 71, 0, 72, 0, 76, 0, 75, 0, 72, 0, 76, 0, 72, 0, 73, 0, 77, 0, 79, 0, 78, 0, 77, 0, 78, 0, 80, 0, 81, 0, 83, 0, 82, 0, 81, 0, 82, 0, 84, 0, 74, 0, 85, 0, 1, 0, 86, 0, 85, 0, 74, 0, 86, 0, 74, 0, 75, 0, 87, 0, 86, 0, 75, 0, 87, 0, 75, 0, 76, 0, 85, 0, 88, 0, 1, 0, 89, 0, 88, 0, 85, 0, 89, 0, 85, 0, 86, 0, 90, 0, 89, 0, 86, 0, 90, 0, 86, 0, 87, 0, 91, 0, 93, 0, 92, 0, 94, 0, 91, 0, 92, 0, 88, 0, 95, 0, 1, 0, 96, 0, 95, 0, 88, 0, 96, 0, 88, 0, 89, 0, 97, 0, 96, 0, 89, 0, 90, 0, 97, 0, 89, 0, 98, 0, 100, 0, 99, 0, 101, 0, 98, 0, 99, 0, 102, 0, 103, 0, 95, 0, 102, 0, 95, 0, 96, 0, 104, 0, 102, 0, 96, 0, 97, 0, 104, 0, 96, 0, 105, 0, 107, 0, 106, 0, 108, 0, 105, 0, 106, 0, 95, 0, 103, 0, 1, 0, 103, 0, 109, 0, 1, 0, 110, 0, 109, 0, 103, 0, 102, 0, 110, 0, 103, 0, 104, 0, 111, 0, 110, 0, 104, 0, 110, 0, 102, 0, 112, 0, 114, 0, 113, 0, 112, 0, 113, 0, 115, 0, 110, 0, 117, 0, 116, 0, 110, 0, 116, 0, 109, 0, 111, 0, 118, 0, 117, 0, 111, 0, 117, 0, 110, 0, 119, 0, 121, 0, 120, 0, 119, 0, 120, 0, 122, 0, 109, 0, 116, 0, 1, 0, 116, 0, 123, 0, 1, 0, 117, 0, 124, 0, 123, 0, 117, 0, 123, 0, 116, 0, 118, 0, 125, 0, 124, 0, 118, 0, 124, 0, 117, 0, 126, 0, 128, 0, 127, 0, 126, 0, 127, 0, 129, 0, 125, 0, 131, 0, 130, 0, 124, 0, 125, 0, 130, 0, 132, 0, 134, 0, 133, 0, 132, 0, 133, 0, 135, 0, 123, 0, 136, 0, 1, 0, 124, 0, 130, 0, 136, 0, 123, 0, 124, 0, 136, 0, 136, 0, 137, 0, 1, 0, 130, 0, 138, 0, 137, 0, 136, 0, 130, 0, 137, 0, 131, 0, 139, 0, 138, 0, 130, 0, 131, 0, 138, 0, 140, 0, 142, 0, 141, 0, 140, 0, 141, 0, 143, 0, 139, 0, 145, 0, 144, 0, 138, 0, 139, 0, 144, 0, 146, 0, 148, 0, 147, 0, 149, 0, 146, 0, 147, 0, 137, 0, 150, 0, 1, 0, 138, 0, 144, 0, 150, 0, 137, 0, 138, 0, 150, 0, 150, 0, 151, 0, 1, 0, 144, 0, 152, 0, 151, 0, 150, 0, 144, 0, 151, 0, 145, 0, 153, 0, 152, 0, 144, 0, 145, 0, 152, 0, 154, 0, 156, 0, 155, 0, 157, 0, 154, 0, 155, 0, 158, 0, 160, 0, 159, 0, 161, 0, 158, 0, 159, 0, 151, 0, 162, 0, 1, 0, 152, 0, 163, 0, 162, 0, 151, 0, 152, 0, 162, 0, 153, 0, 164, 0, 163, 0, 152, 0, 153, 0, 163, 0, 162, 0, 165, 0, 1, 0, 163, 0, 166, 0, 165, 0, 162, 0, 163, 0, 165, 0, 164, 0, 167, 0, 166, 0, 163, 0, 164, 0, 166, 0, 168, 0, 170, 0, 169, 0, 171, 0, 168, 0, 169, 0, 165, 0, 172, 0, 1, 0, 165, 0, 166, 0, 173, 0, 165, 0, 173, 0, 172, 0, 166, 0, 167, 0, 174, 0, 166, 0, 174, 0, 173, 0, 175, 0, 177, 0, 176, 0, 175, 0, 176, 0, 178, 0, 172, 0, 179, 0, 1, 0, 172, 0, 173, 0, 180, 0, 172, 0, 180, 0, 179, 0, 173, 0, 174, 0, 181, 0, 173, 0, 181, 0, 180, 0, 182, 0, 184, 0, 183, 0, 182, 0, 183, 0, 185, 0, 179, 0, 186, 0, 1, 0, 179, 0, 180, 0, 187, 0, 179, 0, 187, 0, 186, 0, 180, 0, 181, 0, 188, 0, 180, 0, 188, 0, 187, 0, 189, 0, 191, 0, 190, 0, 189, 0, 190, 0, 192, 0, 186, 0, 187, 0, 193, 0, 186, 0, 193, 0, 194, 0, 187, 0, 188, 0, 195, 0, 187, 0, 195, 0, 193, 0, 196, 0, 198, 0, 197, 0, 196, 0, 197, 0, 199, 0, 186, 0, 194, 0, 1, 0, 194, 0, 200, 0, 1, 0, 194, 0, 193, 0, 201, 0, 194, 0, 201, 0, 200, 0, 193, 0, 195, 0, 202, 0, 193, 0, 202, 0, 201, 0, 203, 0, 205, 0, 204, 0, 203, 0, 204, 0, 206, 0, 200, 0, 201, 0, 207, 0, 200, 0, 207, 0, 208, 0, 201, 0, 202, 0, 209, 0, 207, 0, 201, 0, 209, 0, 210, 0, 212, 0, 211, 0, 213, 0, 210, 0, 211, 0, 200, 0, 208, 0, 1, 0, 208, 0, 214, 0, 1, 0, 208, 0, 207, 0, 215, 0, 208, 0, 215, 0, 214, 0, 207, 0, 209, 0, 216, 0, 215, 0, 207, 0, 216, 0, 217, 0, 219, 0, 218, 0, 220, 0, 217, 0, 218, 0, 215, 0, 216, 0, 6, 0, 4, 0, 215, 0, 6, 0, 221, 0, 223, 0, 222, 0, 224, 0, 221, 0, 222, 0, 214, 0, 0, 0, 1, 0, 214, 0, 215, 0, 4, 0, 0, 0, 214, 0, 4, 0, 225, 0, 227, 0, 226, 0, 228, 0, 225, 0, 226, 0, 228, 0, 226, 0, 229, 0, 230, 0, 228, 0, 229, 0, 230, 0, 229, 0, 231, 0, 232, 0, 230, 0, 231, 0, 232, 0, 231, 0, 233, 0, 234, 0, 232, 0, 233, 0, 234, 0, 233, 0, 235, 0, 236, 0, 234, 0, 235, 0, 236, 0, 235, 0, 237, 0, 238, 0, 236, 0, 237, 0, 238, 0, 237, 0, 239, 0, 240, 0, 238, 0, 239, 0, 240, 0, 239, 0, 241, 0, 242, 0, 240, 0, 241, 0, 242, 0, 241, 0, 243, 0, 242, 0, 243, 0, 244, 0, 245, 0, 242, 0, 244, 0, 245, 0, 244, 0, 246, 0, 247, 0, 245, 0, 246, 0, 248, 0, 247, 0, 246, 0, 248, 0, 246, 0, 249, 0, 248, 0, 249, 0, 250, 0, 251, 0, 248, 0, 250, 0, 252, 0, 251, 0, 250, 0, 252, 0, 250, 0, 253, 0, 252, 0, 253, 0, 254, 0, 255, 0, 252, 0, 254, 0, 255, 0, 254, 0, 0, 1, 1, 1, 3, 1, 2, 1, 1, 1, 2, 1, 4, 1, 5, 1, 7, 1, 6, 1, 8, 1, 5, 1, 6, 1, 9, 1, 11, 1, 10, 1, 12, 1, 9, 1, 10, 1, 13, 1, 15, 1, 14, 1, 16, 1, 13, 1, 14, 1, 17, 1, 19, 1, 18, 1, 20, 1, 17, 1, 18, 1, 21, 1, 23, 1, 22, 1, 24, 1, 21, 1, 22, 1, 25, 1, 27, 1, 26, 1, 28, 1, 25, 1, 26, 1, 29, 1, 31, 1, 30, 1, 29, 1, 30, 1, 32, 1, 33, 1, 35, 1, 34, 1, 36, 1, 33, 1, 34, 1, 37, 1, 39, 1, 38, 1, 37, 1, 38, 1, 40, 1, 41, 1, 43, 1, 42, 1, 41, 1, 42, 1, 44, 1, 45, 1, 47, 1, 46, 1, 45, 1, 46, 1, 48, 1, 49, 1, 51, 1, 50, 1, 49, 1, 50, 1, 52, 1, 53, 1, 55, 1, 54, 1, 53, 1, 54, 1, 56, 1, 57, 1, 59, 1, 58, 1, 57, 1, 58, 1, 60, 1, 61, 1, 63, 1, 62, 1, 61, 1, 62, 1, 64, 1, 65, 1, 67, 1, 66, 1, 68, 1, 65, 1, 66, 1, 69, 1, 71, 1, 70, 1, 72, 1, 69, 1, 70, 1, 73, 1, 75, 1, 74, 1, 76, 1, 73, 1, 74, 1, 77, 1, 79, 1, 78, 1, 80, 1, 77, 1, 78, 1, 81, 1, 83, 1, 82, 1, 84, 1, 81, 1, 82, 1, 85, 1, 87, 1, 86, 1, 88, 1, 85, 1, 86, 1, 89, 1, 91, 1, 90, 1, 92, 1, 89, 1, 90, 1, 93, 1, 95, 1, 94, 1, 93, 1, 94, 1, 96, 1, 97, 1, 99, 1, 98, 1, 100, 1, 97, 1, 98, 1, 101, 1, 103, 1, 102, 1, 101, 1, 102, 1, 104, 1, 105, 1, 107, 1, 106, 1, 105, 1, 106, 1, 108, 1, 109, 1, 111, 1, 110, 1, 109, 1, 110, 1, 112, 1, 113, 1, 115, 1, 114, 1, 113, 1, 114, 1, 116, 1, 117, 1, 119, 1, 118, 1, 117, 1, 118, 1, 120, 1, 121, 1, 123, 1, 122, 1, 121, 1, 122, 1, 124, 1, 125, 1, 127, 1, 126, 1, 125, 1, 126, 1, 128, 1, 129, 1, 131, 1, 130, 1, 129, 1, 130, 1, 132, 1, 133, 1, 135, 1, 134, 1, 136, 1, 133, 1, 134, 1, 137, 1, 139, 1, 138, 1, 140, 1, 137, 1, 138, 1, 141, 1, 143, 1, 142, 1, 144, 1, 141, 1, 142, 1, 145, 1, 147, 1, 146, 1, 148, 1, 145, 1, 146, 1, 149, 1, 151, 1, 150, 1, 152, 1, 149, 1, 150, 1, 153, 1, 155, 1, 154, 1, 156, 1, 153, 1, 154, 1, 157, 1, 159, 1, 158, 1, 157, 1, 158, 1, 160, 1, 161, 1, 163, 1, 162, 1, 164, 1, 161, 1, 162, 1, 165, 1, 167, 1, 166, 1, 165, 1, 166, 1, 168, 1, 169, 1, 171, 1, 170, 1, 169, 1, 170, 1, 172, 1, 173, 1, 175, 1, 174, 1, 173, 1, 174, 1, 176, 1, 177, 1, 179, 1, 178, 1, 177, 1, 178, 1, 180, 1, 181, 1, 183, 1, 182, 1, 181, 1, 182, 1, 184, 1, 185, 1, 187, 1, 186, 1, 185, 1, 186, 1, 188, 1, 189, 1, 191, 1, 190, 1, 192, 1, 189, 1, 190, 1, 193, 1, 195, 1, 194, 1, 196, 1, 193, 1, 194, 1, 197, 1, 199, 1, 198, 1, 200, 1, 197, 1, 198, 1, 201, 1, 203, 1, 202, 1, 204, 1, 201, 1, 202, 1, 205, 1, 207, 1, 206, 1, 208, 1, 205, 1, 206, 1, 209, 1, 211, 1, 210, 1, 212, 1, 209, 1, 210, 1, 213, 1, 215, 1, 214, 1, 216, 1, 213, 1, 214, 1, 217, 1, 219, 1, 218, 1, 220, 1, 217, 1, 218, 1, 221, 1, 223, 1, 222, 1, 221, 1, 222, 1, 224, 1, 225, 1, 227, 1, 226, 1, 228, 1, 225, 1, 226, 1, 229, 1, 231, 1, 230, 1, 229, 1, 230, 1, 232, 1, 233, 1, 235, 1, 234, 1, 233, 1, 234, 1, 236, 1, 237, 1, 239, 1, 238, 1, 237, 1, 238, 1, 240, 1, 241, 1, 243, 1, 242, 1, 241, 1, 242, 1, 244, 1, 245, 1, 247, 1, 246, 1, 245, 1, 246, 1, 248, 1, 249, 1, 251, 1, 250, 1, 249, 1, 250, 1, 252, 1, 253, 1, 255, 1, 254, 1, 253, 1, 254, 1, 0, 2 ),
"blend_shape_data": [  ],
"format": 97559,
"index_count": 1146,
"material": ExtResource( 2 ),
"primitive": 4,
"skeleton_aabb": [  ],
"vertex_count": 513
}

[node name="SideLeft" type="Spatial"]
transform = Transform( 1, 0, 0, 0, 1, 0, 0, 0, 1, 0.257, 0, 0 )
script = ExtResource( 1 )
max_look_range = 5.0
max_open = 0.3
side_align_time = 0.1
side_open_time = 0.1

[node name="Side" type="MeshInstance" parent="."]
transform = Transform( -1, 8.74228e-08, 0, -8.74228e-08, -1, 0, 0, 0, 1, -0.257, 0, 0 )
mesh = SubResource( 1 )
material/0 = ExtResource( 3 )

[node name="TestBallOrientationIndicators" parent="." instance=ExtResource( 4 )]
editor/display_folded = true
transform = Transform( 0.3, 0, 0, 0, 0.3, 0, 0, 0, 0.3, 0, 0, 0 )
visible = false

[editable path="TestBallOrientationIndicators"]
