[gd_scene load_steps=4 format=2]

[ext_resource path="res://prog/weapon/EnergyBeam.gd" type="Script" id=1]

[sub_resource type="CylinderMesh" id=1]
top_radius = 0.03
bottom_radius = 0.03
height = 20.0
radial_segments = 8
rings = 1

[sub_resource type="SpatialMaterial" id=2]
flags_do_not_receive_shadows = true
flags_disable_ambient_light = true
params_specular_mode = 4
params_blend_mode = 1
params_cull_mode = 2
emission_enabled = true
emission = Color( 0.572549, 0.729412, 1, 1 )
emission_energy = 16.0
emission_operator = 0
emission_on_uv2 = false

[node name="EnergyBeam" type="Spatial"]
script = ExtResource( 1 )
max_impacts = 5

[node name="SpotLight" type="SpotLight" parent="."]
light_color = Color( 0.992157, 1, 0.556863, 1 )
light_energy = 16.0
spot_range = 20.0
spot_attenuation = 1.51572
spot_angle = 150.0
spot_angle_attenuation = 0.0179485

[node name="MeshInstance" type="MeshInstance" parent="."]
transform = Transform( 1, 0, 0, 0, -4.37114e-08, -1, 0, 1, -4.37114e-08, 0, 0, -10 )
mesh = SubResource( 1 )
material/0 = SubResource( 2 )

[node name="RayCast" type="RayCast" parent="."]
enabled = true
cast_to = Vector3( 0, 0, -20 )
