[gd_scene load_steps=8 format=2]

[ext_resource path="res://prog/weapon/EnergyImpact.gd" type="Script" id=1]

[sub_resource type="SphereShape" id=1]
radius = 0.75

[sub_resource type="Curve" id=2]
_data = [ Vector2( 0, 1 ), 0.0, 0.0, 0, 0, Vector2( 1, 0 ), 0.0, 0.0, 0, 0 ]

[sub_resource type="CurveTexture" id=3]
curve = SubResource( 2 )

[sub_resource type="ParticlesMaterial" id=4]
emission_shape = 1
emission_sphere_radius = 0.3
spread = 90.0
initial_velocity = 4.0
initial_velocity_random = 0.5
angular_velocity = 1.12587e+24
damping = 2.0
scale = 3.0
scale_random = 0.4
scale_curve = SubResource( 3 )

[sub_resource type="SpatialMaterial" id=5]
emission_enabled = true
emission = Color( 1, 0.807843, 0.541176, 1 )
emission_energy = 16.0
emission_operator = 0
emission_on_uv2 = false

[sub_resource type="SphereMesh" id=6]
material = SubResource( 5 )
radius = 0.01
height = 0.02
radial_segments = 16
rings = 8

[node name="EnergyImpact" type="Area"]
script = ExtResource( 1 )
enable_damage = false

[node name="CollisionShape" type="CollisionShape" parent="."]
shape = SubResource( 1 )

[node name="Particles" type="Particles" parent="."]
transform = Transform( 1, 0, 0, 0, -4.37114e-08, 1, 0, -1, -4.37114e-08, 0, 0, 0 )
amount = 2000
randomness = 1.0
local_coords = false
process_material = SubResource( 4 )
draw_pass_1 = SubResource( 6 )
