# Blender v2.76 (sub 0) OBJ File: 'tile.blend'
# www.blender.org
mtllib tile.mtl
o Tile
v -1.000000 0.000000 1.000000
v -1.000000 0.500000 1.000000
v -1.000000 0.000000 -1.000000
v -1.000000 0.500000 -1.000000
v 1.000000 0.000000 1.000000
v 1.000000 0.500000 1.000000
v 1.000000 0.000000 -1.000000
v 1.000000 0.500000 -1.000000
v -1.000000 0.000000 1.000000
v -1.000000 0.500000 1.000000
v -1.000000 0.500000 -1.000000
v -1.000000 0.000000 -1.000000
v 1.000000 0.500000 -1.000000
v 1.000000 0.000000 -1.000000
v 1.000000 0.500000 1.000000
v 1.000000 0.000000 1.000000
v -1.000000 0.000000 1.000000
v -1.000000 0.500000 1.000000
v -1.000000 0.500000 -1.000000
v -1.000000 0.000000 -1.000000
v 1.000000 0.000000 1.000000
v 1.000000 0.500000 1.000000
v 1.000000 0.500000 -1.000000
v 1.000000 0.000000 -1.000000
v -1.000000 0.500000 -1.000000
v -1.000000 0.000000 -1.000000
v 1.000000 0.500000 -1.000000
v 1.000000 0.000000 -1.000000
v -1.000000 0.500000 -1.000000
v -1.000000 0.000000 -1.000000
v 1.000000 0.500000 -1.000000
v 1.000000 0.000000 -1.000000
vt 0.264287 0.451447
vt 0.264287 0.401856
vt 0.492487 0.485107
vt 0.492487 0.534698
vt 0.000000 1.000000
vt 1.000000 1.000000
vt 1.000000 0.800000
vt 0.000000 0.800000
vt 0.000000 0.000000
vt 1.000000 0.000000
vt 0.740709 0.458162
vt 0.740709 0.408571
vn 1.000000 0.000000 0.000000
vn 0.000000 0.000000 1.000000
vn 0.000000 0.000000 -1.000000
vn 0.000000 -1.000000 0.000000
vn 0.000000 1.000000 0.000000
vn -1.000000 0.000000 0.000000
usemtl None
s off
f 2/1/1 1/2/1 3/3/1 4/4/1
f 12/3/2 9/2/2 17/2/2 20/3/2
f 11/5/3 13/6/3 14/7/3 12/8/3
f 15/6/2 10/5/2 9/8/2 16/7/2
f 9/9/4 12/8/4 14/7/4 16/10/4
f 15/10/5 13/7/5 11/8/5 10/9/5
f 18/5/6 19/6/6 20/7/6 17/8/6
f 10/1/2 11/4/2 19/4/2 18/1/2
f 11/4/2 12/3/2 20/3/2 19/4/2
f 9/2/2 10/1/2 18/1/2 17/2/2
f 23/6/1 22/5/1 21/8/1 24/7/1
f 19/4/2 20/3/2 30/3/2 29/4/2
f 23/11/2 24/12/2 32/12/2 31/11/2
f 14/12/2 12/3/2 26/3/2 28/12/2
f 11/4/2 13/11/2 27/11/2 25/4/2
l 4 8
l 7 3
l 6 2
l 1 5
