# Blender MTL File: 'progball-2.blend'
# Material Count: 1

newmtl Material.003
Ns 380.250007
Ka 0.813636 0.813636 0.813636
Kd 0.800000 0.800000 0.800000
Ks 0.500000 0.500000 0.500000
Ke 0.0 0.0 0.0
Ni 1.450000
d 1.000000
illum 3
map_Kd /data/src/godot/prog/assets/art/sprites/materials/Brushed_iron_02_2K_Base_Color.png
